央视频道,#genre#
CCTV-1 综合,http://[2409:8087:7000:20::4]:80/dbiptv.sn.chinamobile.com/PLTV/88888888/224/3221226231/index.m3u8
CCTV-2 财经,http://[2409:8087:7001:20:3::6]:80/dbiptv.sn.chinamobile.com/PLTV/88888888/224/3221226195/index.m3u8
CCTV-3 综艺,http://[2409:8087:7001:20:3::7]:80/dbiptv.sn.chinamobile.com/PLTV/88888888/224/3221226397/index.m3u8
CCTV-4 中文国际,http://[2409:8087:7000:20::204]:80/dbiptv.sn.chinamobile.com/PLTV/88888888/224/3221226191/index.m3u8
CCTV-5 体育,http://[2409:8087:7001:20:3::5]:80/dbiptv.sn.chinamobile.com/PLTV/88888888/224/3221226395/index.m3u8
CCTV-5+ 体育赛事,http://[2409:8087:7000:20::203]:80/dbiptv.sn.chinamobile.com/PLTV/88888888/224/3221225761/index.m3u8
CCTV-6 电影,http://[2409:8087:7001:20:3::7]:80/dbiptv.sn.chinamobile.com/PLTV/88888888/224/3221226393/index.m3u8
CCTV-7 国防军事,http://[2409:8087:7001:20:3::4]:80/dbiptv.sn.chinamobile.com/PLTV/88888888/224/3221226192/index.m3u8
CCTV-8 电视剧,http://[2409:8087:7001:20:3::8]:80/dbiptv.sn.chinamobile.com/PLTV/88888888/224/3221226391/index.m3u8
CCTV-9 纪录,http://[2409:8087:7001:20:3::4]:80/dbiptv.sn.chinamobile.com/PLTV/88888888/224/3221226197/index.m3u8
CCTV-10 科教,http://[2409:8087:7001:20:3::2]:80/dbiptv.sn.chinamobile.com/PLTV/88888888/224/3221226189/index.m3u8
CCTV-11 戏曲,http://[2409:8087:7001:20:3::5]:80/dbiptv.sn.chinamobile.com/PLTV/88888888/224/3221226240/index.m3u8
CCTV-12 社会与法,http://[2409:8087:7001:20:3::6]:80/dbiptv.sn.chinamobile.com/PLTV/88888888/224/3221226190/index.m3u8
CCTV-13 新闻,http://[2409:8087:7001:20:3::2]:80/dbiptv.sn.chinamobile.com/PLTV/88888888/224/3221226233/index.m3u8
CCTV-14 少儿,http://[2409:8087:7001:20:3::2]:80/dbiptv.sn.chinamobile.com/PLTV/88888888/224/3221226193/index.m3u8
CCTV-15 音乐,http://[2409:8087:7001:20:3::4]:80/dbiptv.sn.chinamobile.com/PLTV/88888888/224/3221225785/index.m3u8
CCTV-16 奥林匹克,http://[2409:8087:7001:20:3::9]:80/dbiptv.sn.chinamobile.com/PLTV/88888888/224/3221226921/index.m3u8
CCTV-17 农业农村,http://[2409:8087:7001:20:3::5]:80/dbiptv.sn.chinamobile.com/PLTV/88888888/224/3221226198/index.m3u8
CHC动作电影,http://[2409:8087:7001:20:2::3]:80/dbiptv.sn.chinamobile.com/PLTV/88888888/224/3221226465/index.m3u8
CHC家庭影院,http://[2409:8087:7001:20:2::3]:80/dbiptv.sn.chinamobile.com/PLTV/88888888/224/3221226462/index.m3u8
CHC高清电影,http://[2409:8087:7001:20:2::3]:80/dbiptv.sn.chinamobile.com/PLTV/88888888/224/3221226463/index.m3u8
兵器科技,http://[2409:8087:7001:20:2::3]:80/dbiptv.sn.chinamobile.com/PLTV/88888893/224/3221226975/index.m3u8
怀旧剧场,http://[2409:8087:7001:20:2::3]:80/dbiptv.sn.chinamobile.com/PLTV/88888893/224/3221226972/index.m3u8
世界地理,http://[2409:8087:7001:20:2::3]:80/dbiptv.sn.chinamobile.com/PLTV/88888893/224/3221226947/index.m3u8
文化精品,http://[2409:8087:7001:20:2::3]:80/dbiptv.sn.chinamobile.com/PLTV/88888893/224/3221226981/index.m3u8
央视台球,http://[2409:8087:7001:20:2::3]:80/dbiptv.sn.chinamobile.com/PLTV/88888893/224/3221226956/index.m3u8
央视高网,http://[2409:8087:7001:20:2::3]:80/dbiptv.sn.chinamobile.com/PLTV/88888893/224/3221226978/index.m3u8
风云剧场,http://[2409:8087:7001:20:2::3]:80/dbiptv.sn.chinamobile.com/PLTV/88888893/224/3221226950/index.m3u8
风云音乐,http://[2409:8087:7001:20:2::3]:80/dbiptv.sn.chinamobile.com/PLTV/88888893/224/3221226953/index.m3u8
第一剧场,http://[2409:8087:7001:20:2::3]:80/dbiptv.sn.chinamobile.com/PLTV/88888893/224/3221226959/index.m3u8
女性时尚,http://[2409:8087:7001:20:2::3]:80/dbiptv.sn.chinamobile.com/PLTV/88888893/224/3221226969/index.m3u8
风云足球,http://[2409:8087:7001:20:2::3]:80/dbiptv.sn.chinamobile.com/PLTV/88888893/224/3221226984/index.m3u8
电视指南,http://[2409:8087:7001:20:2::3]:80/dbiptv.sn.chinamobile.com/PLTV/88888893/224/3221226987/index.m3u8
CGTN英语,http://[2409:8087:7000:20::4]:80/dbiptv.sn.chinamobile.com/PLTV/88888888/224/3221225745/index.m3u8
CGTN记录,http://[2409:8087:7000:20:1000::22]:6060/yinhe/2/ch00000090990000002905/index.m3u8?virtualDomain=yinhe.live_hls.zte.com
CGTN俄语,http://[2409:8087:7000:20:1000::22]:6060/yinhe/2/ch00000090990000002883/index.m3u8?virtualDomain=yinhe.live_hls.zte.com
CGTN法语,http://[2409:8087:7000:20:1000::22]:6060/yinhe/2/ch00000090990000002827/index.m3u8?virtualDomain=yinhe.live_hls.zte.com
CGTN西语,http://[2409:8087:7000:20:1000::22]:6060/yinhe/2/ch00000090990000002716/index.m3u8?virtualDomain=yinhe.live_hls.zte.com
CGTN阿语,http://[2409:8087:7000:20:1000::22]:6060/yinhe/2/ch00000090990000002826/index.m3u8?virtualDomain=yinhe.live_hls.zte.com

卫视频道,#genre#
凤凰中文,http://[2409:8087:7000:20::4]:80/dbiptv.sn.chinamobile.com/PLTV/88888888/224/3221226547/index.m3u8
凤凰资讯,http://[2409:8087:7000:20::4]:80/dbiptv.sn.chinamobile.com/PLTV/88888888/224/3221226546/index.m3u8
北京卫视,http://[2409:8087:7001:20:2::2]:80/dbiptv.sn.chinamobile.com/PLTV/88888888/224/3221225796/index.m3u8
湖南卫视,http://[2409:8087:7001:20:3::4]:80/dbiptv.sn.chinamobile.com/PLTV/88888888/224/3221225799/index.m3u8
东方卫视,http://[2409:8087:7001:20:3::6]:80/dbiptv.sn.chinamobile.com/PLTV/88888888/224/3221225797/index.m3u8
四川卫视,http://[2409:8087:1a0b:df::4020]:80/ottrrs.hl.chinamobile.com/PLTV/88888888/224/3221226338/index.m3u8
天津卫视,http://[2409:8087:7001:20:3::3]:80/dbiptv.sn.chinamobile.com/PLTV/88888888/224/3221226204/index.m3u8
安徽卫视,http://[2409:8087:7001:20:3::6]:80/dbiptv.sn.chinamobile.com/PLTV/88888888/224/3221226196/index.m3u8
山东卫视,http://[2409:8087:7001:20:3::3]:80/dbiptv.sn.chinamobile.com/PLTV/88888888/224/3221226209/index.m3u8
广东卫视,http://[2409:8087:7001:20:3::3]:80/dbiptv.sn.chinamobile.com/PLTV/88888888/224/3221225803/index.m3u8
广西卫视,http://[2409:8087:1a0b:df::4020]:80/ottrrs.hl.chinamobile.com/PLTV/88888888/224/3221226380/index.m3u8
江苏卫视,http://[2409:8087:7000:20::17]:80/dbiptv.sn.chinamobile.com/PLTV/88888888/224/3221225800/index.m3u8
江西卫视,http://[2409:8087:1a0b:df::4020]:80/ottrrs.hl.chinamobile.com/PLTV/88888888/224/3221226344/index.m3u8
河北卫视,http://[2409:8087:1a0b:df::4020]:80/ottrrs.hl.chinamobile.com/PLTV/88888888/224/3221226406/index.m3u8
河南卫视,http://[2409:8087:1a0b:df::4020]:80/ottrrs.hl.chinamobile.com/PLTV/88888888/224/3221226480/index.m3u8
浙江卫视,http://[2409:8087:7001:20:3::3]:80/dbiptv.sn.chinamobile.com/PLTV/88888888/224/3221225798/index.m3u8
海南卫视,http://[2409:8087:1a0b:df::4020]:80/ottrrs.hl.chinamobile.com/PLTV/88888888/224/3221226465/index.m3u8
深圳卫视,http://[2409:8087:7000:20::15]:80/dbiptv.sn.chinamobile.com/PLTV/88888888/224/3221225801/index.m3u8
湖北卫视,http://[2409:8087:7001:20:3::3]:80/dbiptv.sn.chinamobile.com/PLTV/88888888/224/3221226206/index.m3u8
山西卫视,http://[2409:8087:1a0b:df::4001]:80/ottrrs.hl.chinamobile.com/PLTV/88888888/224/3221225624/index.m3u8
东南卫视,http://[2409:8087:1a0b:df::4020]:80/ottrrs.hl.chinamobile.com/PLTV/88888888/224/3221226341/index.m3u8
贵州卫视,http://[2409:8087:1a0b:df::4020]:80/ottrrs.hl.chinamobile.com/PLTV/88888888/224/3221226474/index.m3u8
辽宁卫视,http://[2409:8087:7001:20:2::4]:80/dbiptv.sn.chinamobile.com/PLTV/88888888/224/3221226201/index.m3u8
重庆卫视,http://[2409:8087:7000:20::18]:80/dbiptv.sn.chinamobile.com/PLTV/88888888/224/3221226202/index.m3u8
黑龙江卫视,http://[2409:8087:7000:20::f]:80/dbiptv.sn.chinamobile.com/PLTV/88888888/224/3221226010/index.m3u8
内蒙古卫视,http://[2409:8087:1a0b:df::4017]:80/ottrrs.hl.chinamobile.com/PLTV/88888888/224/3221225634/index.m3u8
宁夏卫视,http://[2409:8087:1a0b:df::4004]:80/ottrrs.hl.chinamobile.com/PLTV/88888888/224/3221225632/index.m3u8
陕西卫视,http://[2409:8087:7001:20:3::9]:80/dbiptv.sn.chinamobile.com/PLTV/88888888/224/3221226326/index.m3u8
甘肃卫视,http://[2409:8087:1a0b:df::4005]:80/ottrrs.hl.chinamobile.com/PLTV/88888888/224/3221225633/index.m3u8
吉林卫视,http://[2409:8087:1a0b:df::4020]:80/ottrrs.hl.chinamobile.com/PLTV/88888888/224/3221226397/index.m3u8
云南卫视,http://[2409:8087:1a0b:df::4020]:80/ottrrs.hl.chinamobile.com/PLTV/88888888/224/3221226444/index.m3u8
三沙卫视,http://39.136.18.164/cdnrrs.gz.chinamobile.com/PLTV/88888888/224/3221226324/1/index.m3u8?fmt=ts2hls
青海卫视,http://[2409:8087:1a0b:df::4002]:80/ottrrs.hl.chinamobile.com/PLTV/88888888/224/3221225628/index.m3u8
新疆卫视,http://[2409:8087:1a0b:df::4005]:80/ottrrs.hl.chinamobile.com/PLTV/88888888/224/3221225635/index.m3u8
西藏卫视,http://[2409:8087:7001:20:2::4]:80/dbiptv.sn.chinamobile.com/PLTV/88888888/224/3221226212/index.m3u8
兵团卫视,http://[2409:8087:1a0b:df::4020]:80/ottrrs.hl.chinamobile.com/PLTV/88888888/224/3221226439/index.m3u8
延边卫视,http://[2409:8087:1a0b:df::4020]:80/ottrrs.hl.chinamobile.com/PLTV/88888888/224/3221226516/index.m3u8
大湾区卫视,http://[2409:8087:1a0b:df::4020]:80/ottrrs.hl.chinamobile.com/PLTV/88888888/224/3221226442/index.m3u8
安多卫视,http://[2409:8087:1a0b:df::4007]:80/ottrrs.hl.chinamobile.com/PLTV/88888888/224/3221225659/index.m3u8
厦门卫视,http://[2409:8087:7001:20:3::3]:80/dbiptv.sn.chinamobile.com/PLTV/88888890/224/3221226219/index.m3u8
农林卫视,http://[2409:8087:7001:20:3::3]:80/dbiptv.sn.chinamobile.com/PLTV/88888890/224/3221226229/index.m3u8
康巴卫视,http://[2409:8087:1a0b:df::4005]:80/ottrrs.hl.chinamobile.com/PLTV/88888888/224/3221225660/index.m3u8
CETV-1,http://[2409:8087:1a0b:df::4020]:80/ottrrs.hl.chinamobile.com/PLTV/88888888/224/3221225652/index.m3u8
CETV-2,http://[2409:8087:1a0b:df::4013]:80/ottrrs.hl.chinamobile.com/PLTV/88888888/224/3221226425/index.m3u8
CETV-3,http://[2409:8087:7004:20:1000::22]:6610/yinhe/2/ch00000090990000001309/index.m3u8?virtualDomain=yinhe.live_hls.zte.com
CETV-4,http://[2409:8087:1a0b:df::4020]:80/ottrrs.hl.chinamobile.com/PLTV/88888888/224/3221225783/index.m3u8
山东教育,http://[2409:8087:7000:20::4]:80/dbiptv.sn.chinamobile.com/PLTV/88888890/224/3221226238/index.m3u8
金色学堂,http://[2409:8087:7000:20::4]:80/dbiptv.sn.chinamobile.com/PLTV/88888888/224/3221226994/index.m3u8
纪实人文,http://[2409:8087:7000:20::4]:80/dbiptv.sn.chinamobile.com/PLTV/88888888/224/3221226230/index.m3u8
第一财经,http://[2409:8087:7000:20::4]:80/dbiptv.sn.chinamobile.com/PLTV/88888888/224/3221226966/index.m3u8
乐游频道,http://[2409:8087:7000:20::4]:80/dbiptv.sn.chinamobile.com/PLTV/88888888/224/3221226580/index.m3u8
都市剧场,http://[2409:8087:7000:20::4]:80/dbiptv.sn.chinamobile.com/PLTV/88888888/224/3221226581/index.m3u8
欢笑剧场,http://[2409:8087:7000:20::4]:80/dbiptv.sn.chinamobile.com/PLTV/88888888/224/3221226582/index.m3u8
纪实科教,http://[2409:8087:7000:20::4]:80/dbiptv.sn.chinamobile.com/PLTV/88888888/224/3221226232/index.m3u8
卡酷少儿,http://[2409:8087:1a0b:df::4020]:80/ottrrs.hl.chinamobile.com/PLTV/88888888/224/3221225654/index.m3u8
金鹰纪实,http://[2409:8087:7000:20::4]:80/dbiptv.sn.chinamobile.com/PLTV/88888888/224/3221226351/index.m3u8
金鹰卡通,http://[2409:8087:1a0b:df::4008]:80/ottrrs.hl.chinamobile.com/PLTV/88888888/224/3221225653/index.m3u8
茶友频道,http://[2409:8087:7000:20::4]:80/dbiptv.sn.chinamobile.com/PLTV/88888888/224/3221226808/index.m3u8
快乐垂钓,http://[2409:8087:7000:20::4]:80/dbiptv.sn.chinamobile.com/PLTV/88888888/224/3221226805/index.m3u8
游戏风云,http://[2409:8087:7001:20:2::4]:80/dbiptv.sn.chinamobile.com/PLTV/88888888/224/3221226579/index.m3u8
优漫卡通,http://[2409:8087:1a0b:df::4005]:80/ottrrs.hl.chinamobile.com/PLTV/88888888/224/3221225656/index.m3u8
哈哈炫动,http://[2409:8087:1a0b:df::4001]:80/ottrrs.hl.chinamobile.com/PLTV/88888888/224/3221225657/index.m3u8
嘉佳卡通,http://[2409:8087:7000:20::4]:80/dbiptv.sn.chinamobile.com/PLTV/88888890/224/3221226227/index.m3u8
哒啵电竞,http://[2409:8087:7000:20::4]:80/dbiptv.sn.chinamobile.com/PLTV/88888888/224/3221226951/index.m3u8
哒啵赛事,http://[2409:8087:7000:20::4]:80/dbiptv.sn.chinamobile.com/PLTV/88888888/224/3221226954/index.m3u8
黑莓电影,http://[2409:8087:1a0b:df::4014]:80/ottrrs.hl.chinamobile.com/PLTV/88888888/224/3221225743/index.m3u8
黑莓动画,http://[2409:8087:1a0b:df::4006]:80/ottrrs.hl.chinamobile.com/PLTV/88888888/224/3221225662/index.m3u8
梨园频道,http://[2409:8087:4c0a:22:1::11]:6410/170000001115/UmaiCHAN6380788ba7bed/index.m3u8?AuthInfo=toEYVdLfxymUP2l9NZpQI5%2BK6T7j%2FlRm%2BvbM9VO7bA0q1S1k1f36SqqriM0FZoFSAJRfCt8SS7X6sTRmXb81a8O4H%2FdroDKjLoDeaMQdyJQ
弈坛春秋,http://[2409:8087:7004:20:1000::22]:6610/yinhe/2/ch00000090990000001322/index.m3u8?virtualDomain=yinhe.live_hls.zte.com
老故事,http://[2409:8087:7001:20:3::5]:80/dbiptv.sn.chinamobile.com/PLTV/88888890/224/3221226236/index.m3u8
财富天下,http://[2409:8087:7000:20::4]:80/dbiptv.sn.chinamobile.com/PLTV/88888890/224/3221226350/index.m3u8
置业频道,http://[2409:8087:7000:20::4]:80/dbiptv.sn.chinamobile.com/PLTV/88888890/224/3221226241/index.m3u8
家庭理财,http://[2409:8087:7000:20::4]:80/dbiptv.sn.chinamobile.com/PLTV/88888890/224/3221226247/index.m3u8
劲爆体育,http://[2409:8087:7001:20:3::6]:80/dbiptv.sn.chinamobile.com/PLTV/88888890/224/3221226239/index.m3u8

卫视,#genre#
河北卫视,http://[2409:8087:2001:20:2800:0:df6e:eb05]/wh7f454c46tw1698524218_988816054/ott.mobaibox.com/PLTV/3/224/3221228106/index.m3u8?icpid=3&RTS=1669700299&from=40&popid=40&hms_devid=2041&prioritypopid=40&vqe=3
北京卫视,http://[2409:8087:2001:20:2800:0:df6e:eb0b]/wh7f454c46tw2687876293_-1703018199/ott.mobaibox.com/PLTV/3/224/3221227508/index.m3u8?icpid=3&RTS=1668597482&from=40&popid=40&hms_devid=2038&prioritypopid=40&vqe=3
东方卫视,http://[2409:8087:2001:20:2800:0:df6e:eb16]/wh7f454c46tw2542426131_1585848046/ott.mobaibox.com/PLTV/3/224/3221227511/index.m3u8?icpid=3&RTS=1668597336&from=40&popid=40&hms_devid=2114&prioritypopid=40&vqe=3
天津卫视,http://[2409:8087:2001:20:2800:0:df6e:eb11]/wh7f454c46tw2730715388_788631706/ott.mobaibox.com/PLTV/3/224/3221227488/index.m3u8?icpid=3&RTS=1668597525&from=40&popid=40&hms_devid=2110&prioritypopid=40&vqe=3
重庆卫视,http://[2409:8087:2001:20:2800:0:df6e:eb09]/wh7f454c46tw2787424866_142914197/ott.mobaibox.com/PLTV/3/224/3221228133/index.m3u8?icpid=3&RTS=1669701388&from=40&popid=40&hms_devid=2037&prioritypopid=40&vqe=3
浙江卫视,http://[2409:8087:2001:20:2800:0:df6e:eb11]/wh7f454c46tw1197826796_-265147758/ott.mobaibox.com/PLTV/3/224/3221227491/index.m3u8?icpid=3&RTS=1669699798&from=40&popid=40&hms_devid=2110&prioritypopid=40&vqe=3
江苏卫视,http://[2409:8087:2001:20:2800:0:df6e:eb12]/wh7f454c46tw2983110475_-1591539074/ott.mobaibox.com/PLTV/3/224/3221228097/index.m3u8?icpid=3&RTS=1668597777&from=40&popid=40&hms_devid=2112&prioritypopid=40&vqe=3
湖南卫视,http://[2409:8087:2001:20:2800:0:df6e:eb23]:80/wh7f454c46tw211841812_-1243690554/ott.mobaibox.com/PLTV/3/224/3221228413/index.m3u8?icpid=3&RTS=1674380327&from=40&popid=40&hms_devid=2291&prioritypopid=40&vqe=3
江西卫视,http://[2409:8087:2001:20:2800:0:df6e:eb17]/wh7f454c46tw1965546073_-1364170119/ott.mobaibox.com/PLTV/3/224/3221228109/index.m3u8?icpid=3&RTS=1669700566&from=40&popid=40&hms_devid=2114&prioritypopid=40&vqe=3
河南卫视,http://[2409:8087:2001:20:2800:0:df6e:eb17]/wh7f454c46tw1784575403_-1712002709/ott.mobaibox.com/PLTV/3/224/3221228221/index.m3u8?icpid=3&RTS=1669700385&from=40&popid=40&hms_devid=2114&prioritypopid=40&vqe=3
海南卫视,http://[2409:8087:2001:20:2800:0:df6e:eb08]/wh7f454c46tw2843123663_1489055229/ott.mobaibox.com/PLTV/3/224/3221228139/index.m3u8?icpid=3&RTS=1669701444&from=40&popid=40&hms_devid=2037&prioritypopid=40&vqe=3
深圳卫视,http://[2409:8087:2001:20:2800:0:df6e:eb11]/wh7f454c46tw3025923625_628894334/ott.mobaibox.com/PLTV/3/224/3221227555/index.m3u8?icpid=3&RTS=1668597820&from=40&popid=40&hms_devid=2110&prioritypopid=40&vqe=3
湖北卫视,http://[2409:8087:2001:20:2800:0:df6e:eb11]/wh7f454c46tw3059146177_-1525708880/ott.mobaibox.com/PLTV/3/224/3221227479/index.m3u8?icpid=3&RTS=1668597853&from=40&popid=40&hms_devid=2110&prioritypopid=40&vqe=3
四川卫视,http://[2409:8087:2001:20:2800:0:df6e:eb09]/wh7f454c46tw2502717081_11504314/ott.mobaibox.com/PLTV/3/224/3221227556/index.m3u8?icpid=3&RTS=1669701103&from=40&popid=40&hms_devid=2037&prioritypopid=40&vqe=3
安徽卫视,http://[2409:8087:2001:20:2800:0:df6e:eb12]/wh7f454c46tw2802330256_375747539/ott.mobaibox.com/PLTV/3/224/3221227558/index.m3u8?icpid=3&RTS=1668597596&from=40&popid=40&hms_devid=2112&prioritypopid=40&vqe=3
山东卫视,http://[2409:8087:2001:20:2800:0:df6e:eb10]/wh7f454c46tw2848465480_1677095697/ott.mobaibox.com/PLTV/3/224/3221227517/index.m3u8?icpid=3&RTS=1668597642&from=40&popid=40&hms_devid=2110&prioritypopid=40&vqe=3
山西卫视,http://[2409:8087:2001:20:2800:0:df6e:eb06]:80/wh7f454c46tw1574076400_-2066173512/ott.mobaibox.com/PLTV/3/224/3221227559/index.m3u8
陕西卫视,http://[2409:8087:2001:20:2800:0:df6e:eb1b]:80/wh7f454c46tw2360314992_451435426/ott.mobaibox.com/PLTV/3/224/3221227583/index.m3u8
广东卫视,http://[2409:8087:2001:20:2800:0:df6e:eb03]/wh7f454c46tw2917484419_-1632335828/ott.mobaibox.com/PLTV/3/224/3221227476/index.m3u8?icpid=3&RTS=1668597711&from=40&popid=40&hms_devid=2039&prioritypopid=40&vqe=3
广西卫视,http://[2409:8087:2001:20:2800:0:df6e:eb05]/wh7f454c46tw2325655923_1638953995/ott.mobaibox.com/PLTV/3/224/3221228183/index.m3u8?icpid=3&RTS=1669700926&from=40&popid=40&hms_devid=2041&prioritypopid=40&vqe=3
东南卫视,http://[2409:8087:2001:20:2800:0:df6e:eb0a]/wh7f454c46tw2900649569_-743777193/ott.mobaibox.com/PLTV/3/224/3221227670/index.m3u8?icpid=3&RTS=1669701501&from=40&popid=40&hms_devid=2038&prioritypopid=40&vqe=3
贵州卫视,http://[2409:8087:2001:20:2800:0:df6e:eb08]/wh7f454c46tw2087544744_109645303/ott.mobaibox.com/PLTV/3/224/3221228136/index.m3u8?icpid=3&RTS=1669700688&from=40&popid=40&hms_devid=2037&prioritypopid=40&vqe=3
黑龙江卫视,http://[2409:8087:1a01:df::4077]/ottrrs.hl.chinamobile.com/PLTV/88888888/224/3221226327/index.m3u8
吉林卫视,http://[2409:8087:2001:20:2800:0:df6e:eb03]/wh7f454c46tw1874077489_789689702/ott.mobaibox.com/PLTV/3/224/3221228130/index.m3u8?icpid=3&RTS=1669700475&from=40&popid=40&hms_devid=2039&prioritypopid=40&vqe=3
辽宁卫视,http://[2409:8087:2001:20:2800:0:df6e:eb16]/wh7f454c46tw3102310989_-1844874138/ott.mobaibox.com/PLTV/3/224/3221227485/index.m3u8?icpid=3&RTS=1668597896&from=40&popid=40&hms_devid=2114&prioritypopid=40&vqe=3
甘肃卫视,http://[2409:8087:2001:20:2800:0:df6e:eb1a]/wh7f454c46tw1400573680_-1979013462/ott.mobaibox.com/PLTV/3/224/3221227568/index.m3u8?icpid=3&RTS=1668600490&from=40&popid=40&hms_devid=2116&prioritypopid=40&vqe=3
贵州卫视,http://[2409:8087:2001:20:2800:0:df6e:eb08]:80/wh7f454c46tw2087544744_109645303/ott.mobaibox.com/PLTV/3/224/3221228136/index.m3u8
甘肃卫视,http://[2409:8087:2001:20:2800:0:df6e:eb1a]:80/wh7f454c46tw1400573680_-1979013462/ott.mobaibox.com/PLTV/3/224/3221227568/index.m3u8
青海卫视,http://[2409:8087:2001:20:2800:0:df6e:eb1b]/wh7f454c46tw1221605145_-1738716276/ott.mobaibox.com/PLTV/3/224/3221227554/index.m3u8?icpid=3&RTS=1668600311&from=40&popid=40&hms_devid=2116&prioritypopid=40&vqe=3
新疆卫视,http://[2409:8087:2001:20:2800:0:df6e:eb0b]/wh7f454c46tw993550557_162751766/ott.mobaibox.com/PLTV/3/224/3221228290/index.m3u8?icpid=3&RTS=1668604377&from=40&popid=40&hms_devid=2038&prioritypopid=40&vqe=3
新疆卫视,http://cyz32.livehbindex.hbcatv.cn/live/500000201e484cbeb064a31201e3dd05.m3u8?bitrate=2300&pt=5
康巴卫视,http://[2409:8087:2001:20:2800:0:df6e:eb10]:80/wh7f454c46tw3423902933_-437655574/ott.mobaibox.com/PLTV/3/224/3221227645/index.m3u8
康巴卫视,http://[2409:8087:7000:20:1000::22]:6060/yinhe/2/ch00000090990000001313/index.m3u8?virtualDomain=yinhe.live_hls.zte.com
内蒙古卫视,http://[2409:8087:2001:20:2800:0:df6e:eb19]:80/wh7f454c46tw2228825807_1324573507/ott.mobaibox.com/PLTV/3/224/3221227557/index.m3u8
天津卫视,http://[2409:8087:1a01:df::4077]/ottrrs.hl.chinamobile.com/PLTV/88888888/224/3221226459/index.m3u8
河北卫视,http://[2409:8087:1a01:df::4077]/PLTV/88888888/224/3221225961/index.m3u8
河北卫视,http://[2409:8087:1e03:21::2]:6060/cms001/ch00000090990000001229/index.m3u8
河北卫视,http://[2409:8087:1a01:df::4077]/PLTV/88888888/224/3221225991/index.m3u8
河北卫视,http://[2409:8087:1e04:21::102]:6060/cms001/ch00000090990000001229/1.m3u8
河北卫视,http://iptvrr.sh.chinamobile.com:6060/cms001/ch00000090990000001229/index.m3u8
北京卫视,http://dbiptv.sn.chinamobile.com/PLTV/88888888/224/3221225796/1.m3u8
北京卫视,http://[2409:8087:1e03:21::2]:6060/cms001/ch00000090990000001029/index.m3u8
北京卫视,http://[2409:8087:1a01:df::4077]/PLTV/88888888/224/3221225931/index.m3u8
北京卫视,http://[2409:8087:1a01:df::4077]/ottrrs.hl.chinamobile.com/PLTV/88888888/224/3221226450/index.m3u8
北京卫视,http://[2409:8087:7000:20:1000::22]:6060/yinhe/2/ch00000090990000001335/index.m3u8?virtualDomain=yinhe.live_hls.zte.com
北京卫视,http://[2409:8087:7004:20:1000::22]:6610/yinhe/2/ch00000090990000001025/index.m3u8?virtualDomain=yinhe.live_hls.zte.com
北京卫视,http://[2409:8087:7004:20:1000::22]:6610/yinhe/2/ch00000090990000001335/index.m3u8?virtualDomain=yinhe.live_hls.zte.com
北京卫视,http://[2409:8087:1e04:21::102]:6060/cms001/ch00000090990000001029/1.m3u8
北京卫视,http://[2409:8087:7000:20:1000::22]:6060/yinhe/2/ch00000090990000001025/index.m3u8?virtualDomain=yinhe.live_hls.zte.com
北京卫视,http://dbiptv.sn.chinamobile.com/PLTV/88888890/224/3221225796/index.m3u8
北京卫视,http://dbiptv.sn.chinamobile.com/PLTV/88888890/224/3221226222/index.m3u8
北京卫视,http://iptvrr.sh.chinamobile.com:6060/cms001/ch00000090990000001029/index.m3u8
东方卫视,http://[2409:8087:1e03:21::2]:6060/cms001/ch00000090990000001013/index.m3u8
东方卫视,http://[2409:8087:1a01:df::4077]/ottrrs.hl.chinamobile.com/PLTV/88888888/224/3221226345/index.m3u8
东方卫视,http://[2409:8087:1a01:df::4077]/PLTV/88888888/224/3221225942/index.m3u8
东方卫视,http://[2409:8087:7000:20:1000::22]:6060/yinhe/2/ch00000090990000001336/index.m3u8?virtualDomain=yinhe.live_hls.zte.com
东方卫视,http://dbiptv.sn.chinamobile.com/PLTV/88888888/224/3221225797/1.m3u8
东方卫视,http://[2409:8087:7004:20:1000::22]:6610/yinhe/2/ch00000090990000001028/index.m3u8?virtualDomain=yinhe.live_hls.zte.com
东方卫视,http://[2409:8087:7004:20:1000::22]:6610/yinhe/2/ch00000090990000001336/index.m3u8?virtualDomain=yinhe.live_hls.zte.com
东方卫视,http://[2409:8087:7000:20:1000::22]:6060/yinhe/2/ch00000090990000001028/index.m3u8?virtualDomain=yinhe.live_hls.zte.com
重庆卫视,http://[2409:8087:1e03:21::2]:6060/cms001/ch00000090990000001129/index.m3u8
重庆卫视,http://[2409:8087:1a01:df::4077]/PLTV/88888888/224/3221225963/index.m3u8
重庆卫视,http://[2409:8087:1a01:df::4077]/ottrrs.hl.chinamobile.com/PLTV/88888888/224/3221226409/index.m3u8
重庆卫视,http://[2409:8087:7004:20:1000::22]:6610/yinhe/2/ch00000090990000001297/index.m3u8?virtualDomain=yinhe.live_hls.zte.com
重庆卫视,http://[2409:8087:1e04:21::102]:6060/cms001/ch00000090990000001129/1.m3u8
重庆卫视,http://[2409:8087:7000:20:1000::22]:6060/yinhe/2/ch00000090990000001297/index.m3u8?virtualDomain=yinhe.live_hls.zte.com
重庆卫视,http://dbiptv.sn.chinamobile.com/PLTV/88888890/224/3221226202/index.m3u8
天津卫视,http://[2409:8087:1e03:21::2]:6060/cms001/ch00000090990000001036/index.m3u8
天津卫视,http://[2409:8087:1a01:df::4077]/PLTV/88888888/224/3221225972/index.m3u8
天津卫视,http://[2409:8087:7000:20:1000::22]:6060/yinhe/2/ch00000090990000001343/index.m3u8?virtualDomain=yinhe.live_hls.zte.com
天津卫视,http://[2409:8087:7004:20:1000::22]:6610/yinhe/2/ch00000090990000001343/index.m3u8?virtualDomain=yinhe.live_hls.zte.com
天津卫视,http://[2409:8087:1e04:21::102]:6060/cms001/ch00000090990000001036/1.m3u8
湖南卫视,http://[2409:8087:1e03:21::2]:6060/cms001/ch00000090990000001026/index.m3u8
湖南卫视,http://[2409:8087:1a01:df::4077]/PLTV/88888888/224/3221226000/index.m3u8
湖南卫视,http://[2409:8087:7004:20:1000::22]:6610/yinhe/2/ch00000090990000001027/index.m3u8?virtualDomain=yinhe.live_hls.zte.com
湖南卫视,http://[2409:8087:7004:20:1000::22]:6610/yinhe/2/ch00000090990000001339/index.m3u8?virtualDomain=yinhe.live_hls.zte.com
湖南卫视,http://[2409:8087:7000:20:1000::22]:6060/yinhe/2/ch00000090990000001027/index.m3u8?virtualDomain=yinhe.live_hls.zte.com
湖南卫视,http://dbiptv.sn.chinamobile.com/PLTV/88888890/224/3221225799/index.m3u8
湖南卫视,http://dbiptv.sn.chinamobile.com/PLTV/88888890/224/3221226211/index.m3u8
湖南卫视,http://iptvrr.sh.chinamobile.com:6060/cms001/ch00000090990000001026/index.m3u8
浙江卫视,http://[2409:8087:1e03:21::2]:6060/cms001/ch00000090990000001023/index.m3u8
浙江卫视,http://[2409:8087:1a01:df::4077]/ottrrs.hl.chinamobile.com/PLTV/88888888/224/3221226339/index.m3u8
浙江卫视,http://[2409:8087:1a01:df::4077]/PLTV/88888888/224/3221225959/index.m3u8
浙江卫视,http://[2409:8087:7004:20:1000::22]:6610/yinhe/2/ch00000090990000001026/index.m3u8?virtualDomain=yinhe.live_hls.zte.com
浙江卫视,http://[2409:8087:7004:20:1000::22]:6610/yinhe/2/ch00000090990000001345/index.m3u8?virtualDomain=yinhe.live_hls.zte.com
浙江卫视,http://[2409:8087:7000:20:1000::22]:6060/yinhe/2/ch00000090990000001345/index.m3u8?virtualDomain=yinhe.live_hls.zte.com
浙江卫视,http://[2409:8087:1e04:21::102]:6060/cms001/ch00000090990000001023/1.m3u8
浙江卫视,http://[2409:8087:7000:20:1000::22]:6060/yinhe/2/ch00000090990000001026/index.m3u8?virtualDomain=yinhe.live_hls.zte.com
江苏卫视,http://[2409:8087:1e03:21::2]:6060/cms001/ch00000090990000001033/index.m3u8
江苏卫视,http://[2409:8087:1a01:df::4077]/PLTV/88888888/224/3221225938/index.m3u8
江苏卫视,http://[2409:8087:1a01:df::4077]/PLTV/88888888/224/3221225929/index.m3u8
江苏卫视,http://[2409:8087:1a01:df::4077]/ottrrs.hl.chinamobile.com/PLTV/88888888/224/3221226310/index.m3u8
江苏卫视,http://[2409:8087:7000:20:1000::22]:6060/yinhe/2/ch00000090990000001344/index.m3u8?virtualDomain=yinhe.live_hls.zte.com
江苏卫视,http://[2409:8087:1e04:21::102]:6060/cms001/ch00000090990000001033/1.m3u8
江苏卫视,http://[2409:8087:7000:20:1000::22]:6060/yinhe/2/ch00000090990000001032/index.m3u8?virtualDomain=yinhe.live_hls.zte.com
山东卫视,http://[2409:8087:1e03:21::2]:6060/cms001/ch00000090990000001028/index.m3u8
山东卫视,http://[2409:8087:1a01:df::4077]/PLTV/88888888/224/3221225952/index.m3u8
山东卫视,http://[2409:8087:1a01:df::4077]/ottrrs.hl.chinamobile.com/PLTV/88888888/224/3221226456/index.m3u8
山东卫视,http://[2409:8087:7000:20:1000::22]:6060/yinhe/2/ch00000090990000001341/index.m3u8?virtualDomain=yinhe.live_hls.zte.com
山东卫视,http://[2409:8087:1e04:21::102]:6060/cms001/ch00000090990000001028/1.m3u8
山东卫视,http://[2409:8087:7000:20:1000::22]:6060/yinhe/2/ch00000090990000001276/index.m3u8?virtualDomain=yinhe.live_hls.zte.com
山西卫视,http://[2409:8087:1e03:21::2]:6060/cms001/ch00000090990000001070/index.m3u8
山西卫视,http://[2409:8087:1a01:df::4077]/PLTV/88888888/224/3221226009/index.m3u8
山西卫视,http://[2409:8087:2001:20:2800:0:df6e:eb06]/wh7f454c46tw1574076400_-2066173512/ott.mobaibox.com/PLTV/3/224/3221227559/index.m3u8?icpid=3&RTS=1669700175&from=40&popid=40&hms_devid=2036&prioritypopid=40&vqe=3
河南卫视,http://[2409:8087:1e03:21::2]:6060/cms001/ch00000090990000001222/index.m3u8
河南卫视,http://[2409:8087:1a01:df::4077]/PLTV/88888888/224/3221226023/index.m3u8
河南卫视,http://[2409:8087:1a01:df::4077]/PLTV/88888888/224/3221225988/index.m3u8
河南卫视,http://[2409:8087:1a01:df::4077]/ottrrs.hl.chinamobile.com/PLTV/88888888/224/3221226480/index.m3u8
河南卫视,http://[2409:8087:1e03:21::11]:6610/cms001/ch00000090990000001222/index.m3u8?
河南卫视,http://[2409:8087:1e04:21::102]:6060/cms001/ch00000090990000001222/1.m3u8
安徽卫视,http://[2409:8087:1e03:21::2]:6060/cms001/ch00000090990000001037/index.m3u8
安徽卫视,http://[2409:8087:1a01:df::4077]/ottrrs.hl.chinamobile.com/PLTV/88888888/224/3221226391/index.m3u8
安徽卫视,http://[2409:8087:1a01:df::4077]/PLTV/88888888/224/3221225925/index.m3u8
安徽卫视,http://[2409:8087:7000:20:1000::22]:6060/yinhe/2/ch00000090990000001283/index.m3u8?virtualDomain=yinhe.live_hls.zte.com
安徽卫视,http://[2409:8087:1e04:21::102]:6060/cms001/ch00000090990000001037/1.m3u8
广东卫视,http://[2409:8087:1a01:df::4077]/PLTV/88888888/224/3221225966/index.m3u8
广东卫视,http://[2409:8087:1e03:21::2]:6060/cms001/ch00000090990000001032/index.m3u8
广东卫视,http://[2409:8087:1e04:21::102]:6060/cms001/ch00000090990000001032/1.m3u8
广东卫视,http://[2409:8087:2001:20:2800:0:df6e:eb02]:80/PLTV/1/224/3221230380/1.m3u8
广东卫视,http://[2409:8087:2001:20:2800:0:df6e:eb0c]:80/PLTV/1/224/3221230238/1.m3u8
广东卫视,http://[2409:8087:2001:20:2800:0:df6e:eb26]:80/PLTV/1/224/3221231102/1.m3u8
广东卫视,http://[2409:8087:1a01:df::4077]/ottrrs.hl.chinamobile.com/PLTV/88888888/224/3221226248/index.m3u8
广东卫视,http://[2409:8087:7000:20:1000::22]:6060/yinhe/2/ch00000090990000001337/index.m3u8?virtualDomain=yinhe.live_hls.zte.com
广东卫视,http://[2409:8087:7004:20:1000::22]:6610/yinhe/2/ch00000090990000001031/index.m3u8?virtualDomain=yinhe.live_hls.zte.com
深圳卫视,http://[2409:8087:1e03:21::2]:6060/cms001/ch00000090990000001030/index.m3u8
深圳卫视,http://[2409:8087:1a01:df::4077]/PLTV/88888888/224/3221225997/index.m3u8
深圳卫视,http://[2409:8087:1a01:df::4077]/ottrrs.hl.chinamobile.com/PLTV/88888888/224/3221226313/index.m3u8
深圳卫视,http://[2409:8087:1a01:df::4077]/PLTV/88888888/224/3221225943/index.m3u8
深圳卫视,http://[2409:8087:7000:20:1000::22]:6060/yinhe/2/ch00000090990000001029/index.m3u8?virtualDomain=yinhe.live_hls.zte.com
深圳卫视,http://[2409:8087:7004:20:1000::22]:6610/yinhe/2/ch00000090990000001342/index.m3u8?virtualDomain=yinhe.live_hls.zte.com
深圳卫视,http://[2409:8087:1e04:21::102]:6060/cms001/ch00000090990000001030/1.m3u8
广西卫视,http://[2409:8087:1e03:21::2]:6060/cms001/ch00000090990000001224/index.m3u8
广西卫视,http://[2409:8087:2001:20:2800:0:df6e:eb05]:80/wh7f454c46tw2325655923_1638953995/ott.mobaibox.com/PLTV/3/224/3221228183/index.m3u8
广西卫视,http://[2409:8087:1e04:21::102]:6060/cms001/ch00000090990000001224/1.m3u8
湖北卫视,http://[2409:8087:1e03:21::2]:6060/cms001/ch00000090990000001027/index.m3u8
湖北卫视,http://[2409:8087:1a01:df::4077]/PLTV/88888888/224/3221225975/index.m3u8
湖北卫视,http://[2409:8087:7000:20:1000::22]:6060/yinhe/2/ch00000090990000001347/index.m3u8?virtualDomain=yinhe.live_hls.zte.com
湖北卫视,http://[2409:8087:7004:20:1000::22]:6610/yinhe/2/ch00000090990000001299/index.m3u8?virtualDomain=yinhe.live_hls.zte.com
湖北卫视,http://[2409:8087:7004:20:1000::22]:6610/yinhe/2/ch00000090990000001347/index.m3u8?virtualDomain=yinhe.live_hls.zte.com
湖北卫视,http://[2409:8087:1e04:21::102]:6060/cms001/ch00000090990000001027/1.m3u8
湖北卫视,http://[2409:8087:7000:20:1000::22]:6060/yinhe/2/ch00000090990000001299/index.m3u8?virtualDomain=yinhe.live_hls.zte.com
黑龙江卫视,http://[2409:8087:1e03:21::2]:6060/cms001/ch00000090990000001031/index.m3u8
黑龙江卫视,http://[2409:8087:1a01:df::4077]/PLTV/88888888/224/3221225985/index.m3u8
黑龙江卫视,http://[2409:8087:1a01:df::4077]/PLTV/88888888/224/3221226006/index.m3u8
黑龙江卫视,http://[2409:8087:1a01:df::4001]/ottrrs.hl.chinamobile.com/PLTV/88888888/224/3221226327/1.m3u8
黑龙江卫视,http://[2409:8087:7004:20:1000::22]:6610/yinhe/2/ch00000090990000001030/index.m3u8?virtualDomain=yinhe.live_hls.zte.com
黑龙江卫视,http://[2409:8087:1e04:21::102]:6060/cms001/ch00000090990000001031/1.m3u8
黑龙江卫视,http://[2409:8087:7000:20:1000::22]:6060/yinhe/2/ch00000090990000001030/index.m3u8?virtualDomain=yinhe.live_hls.zte.com
吉林卫视,http://[2409:8087:1e03:21::2]:6060/cms001/ch00000090990000001225/index.m3u8
吉林卫视,http://[2409:8087:1a01:df::4077]/PLTV/88888888/224/3221226013/index.m3u8
吉林卫视,http://[2409:8087:1a01:df::4077]/PLTV/88888888/224/3221225981/index.m3u8
吉林卫视,http://[2409:8087:1e04:21::102]:6060/cms001/ch00000090990000001225/1.m3u8
辽宁卫视,http://[2409:8087:1e03:21::2]:6060/cms001/ch00000090990000001035/index.m3u8
辽宁卫视,http://[2409:8087:7000:20:1000::22]:6060/yinhe/2/ch00000090990000001340/index.m3u8?virtualDomain=yinhe.live_hls.zte.com
辽宁卫视,http://[2409:8087:7004:20:1000::22]:6610/yinhe/2/ch00000090990000001296/index.m3u8?virtualDomain=yinhe.live_hls.zte.com
辽宁卫视,http://[2409:8087:1e04:21::102]:6060/cms001/ch00000090990000001035/1.m3u8
江西卫视,http://[2409:8087:1e03:21::2]:6060/cms001/ch00000090990000001034/index.m3u8
江西卫视,http://[2409:8087:1a01:df::4077]/PLTV/88888888/224/3221225935/index.m3u8
江西卫视,http://[2409:8087:1a01:df::4077]/ottrrs.hl.chinamobile.com/PLTV/88888888/224/3221226344/index.m3u8
江西卫视,http://[2409:8087:1e04:21::102]:6060/cms001/ch00000090990000001034/1.m3u8
东南卫视,http://[2409:8087:1e03:21::2]:6060/cms001/ch00000090990000001201/index.m3u8
东南卫视,http://[2409:8087:1a01:df::4077]/PLTV/88888888/224/3221226038/index.m3u8
东南卫视,http://[2409:8087:1a01:df::4077]/ottrrs.hl.chinamobile.com/PLTV/88888888/224/3221226341/index.m3u8
东南卫视,http://[2409:8087:1a01:df::4077]/PLTV/88888888/224/3221225950/index.m3u8
东南卫视,http://[2409:8087:1e03:21::13]:6610/cms001/ch00000090990000001201/index.m3u8?
东南卫视,http://[2409:8087:1e04:21::102]:6060/cms001/ch00000090990000001201/1.m3u8
陕西卫视,http://[2409:8087:1e03:21::2]:6060/cms001/ch00000090990000001067/index.m3u8
陕西卫视,http://[2409:8087:1a01:df::4077]/PLTV/88888888/224/3221225989/index.m3u8
四川卫视,http://[2409:8087:1e03:21::2]:6060/cms001/ch00000090990000001130/index.m3u8
四川卫视,http://[2409:8087:1a01:df::4077]/PLTV/88888888/224/3221225970/index.m3u8
四川卫视,http://[2409:8087:1a01:df::4077]/ottrrs.hl.chinamobile.com/PLTV/88888888/224/3221226338/index.m3u8
四川卫视,http://[2409:8087:1e04:21::102]:6060/cms001/ch00000090990000001130/1.m3u8
甘肃卫视,http://[2409:8087:1e03:21::2]:6060/cms001/ch00000090990000001298/index.m3u8
甘肃卫视,http://[2409:8087:74F1:0021::0008]:80/270000001111/1110000322/index.m3u8?IASHttpSessionId=OTT
甘肃卫视,http://[2409:8087:1e04:21::102]:6060/cms001/ch00000090990000001298/1.m3u8
兵团卫视,http://[2409:8087:1e03:21::2]:6060/cms001/ch00000090990000001066/index.m3u8
贵州卫视,http://[2409:8087:1e03:21::2]:6060/cms001/ch00000090990000001184/index.m3u8
贵州卫视,http://[2409:8087:1a01:df::4077]/PLTV/88888888/224/3221226030/index.m3u8
贵州卫视,http://[2409:8087:1a01:df::4077]/PLTV/88888888/224/3221225974/index.m3u8
贵州卫视,http://[2409:8087:1a01:df::4077]/ottrrs.hl.chinamobile.com/PLTV/88888888/224/3221226474/index.m3u8
贵州卫视,http://[2409:8087:1e04:21::102]:6060/cms001/ch00000090990000001184/1.m3u8
海南卫视,http://[2409:8087:1e03:21::2]:6060/cms001/ch00000090990000001183/index.m3u8
海南卫视,http://[2409:8087:1a01:df::4077]/PLTV/88888888/224/3221225978/index.m3u8
海南卫视,http://[2409:8087:1e03:21::11]:6610/cms001/ch00000090990000001183/index.m3u8?
海南卫视,http://[2409:8087:1e04:21::102]:6060/cms001/ch00000090990000001183/1.m3u8
内蒙古卫视,http://[2409:8087:2001:20:2800:0:df6e:eb19]/wh7f454c46tw2228825807_1324573507/ott.mobaibox.com/PLTV/3/224/3221227557/index.m3u8?icpid=3&RTS=1669700829&from=40&popid=40&hms_devid=2113&prioritypopid=40&vqe=3
宁夏卫视,http://[2409:8087:1e03:21::2]:6060/cms001/ch00000090990000001074/index.m3u8
宁夏卫视,http://[2409:8087:5e01:34::22]:6610/ZTE_CMS/00000001000000060000000000000309/index.m3u8?
宁夏卫视,http://[2409:8087:2001:20:2800:0:df6e:eb06]/wh7f454c46tw2201703491_-1935318667/ott.mobaibox.com/PLTV/3/224/3221227563/index.m3u8?icpid=3&RTS=1669700802&from=40&popid=40&hms_devid=2036&prioritypopid=40&vqe=3
青海卫视,http://[2409:8087:1e03:21::2]:6060/cms001/ch00000090990000001082/index.m3u8
青海卫视,http://[2409:8087:5e01:34::23]:6610/ZTE_CMS/00000001000000060000000000000320/index.m3u8?
云南卫视,http://[2409:8087:1e03:21::2]:6060/cms001/ch00000090990000001223/index.m3u8
云南卫视,http://[2409:8087:1e04:21::102]:6060/cms001/ch00000090990000001223/1.m3u8
厦门卫视,http://[2409:8087:7000:20::4]:80/dbiptv.sn.chinamobile.com/PLTV/88888890/224/3221226219/index.m3u8
厦门卫视,http://[2409:8087:5e01:34::23]:6610/ZTE_CMS/00000001000000060000000000000193/index.m3u8?fmmv6
厦门卫视,http://[2409:8087:7000:20:1000::22]:6060/yinhe/2/ch00000090990000001306/index.m3u8?virtualDomain=yinhe.live_hls.zte.com
厦门卫视,http://[2409:8087:7004:20:1000::22]:6610/yinhe/2/ch00000090990000001306/index.m3u8?virtualDomain=yinhe.live_hls.zte.com
厦门卫视,http://dbiptv.sn.chinamobile.com/PLTV/88888890/224/3221226219/index.m3u8
大湾区卫视,http://[2409:8087:2001:20:2800:0:df6e:eb04]/wh7f454c46tw2170556060_670362115/ott.mobaibox.com/PLTV/88888890/224/3221227005/index.m3u8?icpid=88888890&RTS=1687954382&from=40&popid=40&hms_devid=2041&prioritypopid=40&vqe=3
大湾区卫视,http://dbiptv.sn.chinamobile.com/PLTV/88888890/224/3221226218/index.m3u8


数字高清,#genre#
CHC高清电影,http://[2409:8087:7000:20:1000::22]:6060/yinhe/2/ch00000090990000002065/index.m3u8?virtualDomain=yinhe.live_hls.zte.com
CHC家庭影院,http://[2409:8087:7000:20:1000::22]:6060/yinhe/2/ch00000090990000002085/index.m3u8?virtualDomain=yinhe.live_hls.zte.com
CHC动作电影,http://[2409:8087:7000:20:1000::22]:6060/yinhe/2/ch00000090990000002055/index.m3u8?virtualDomain=yinhe.live_hls.zte.com
求索纪录,http://[2409:8087:7001:20:1000::95]:6610/000000001000/6000000002000032052/index.m3u8?channel-id=wasusyt&Contentid=6000000002000032052&livemode=1&stbId=3
求索科学,http://[2409:8087:7001:20:1000::95]:6610/000000001000/6000000002000032344/index.m3u8?channel-id=wasusyt&Contentid=6000000002000032344&livemode=1&stbId=3
求索动物,http://[2409:8087:7001:20:1000::95]:6610/000000001000/6000000002000010046/index.m3u8?channel-id=wasusyt&Contentid=6000000002000010046&livemode=1&stbId=3
求索生活,http://[2409:8087:7001:20:1000::95]:6610/000000001000/6000000002000003382/index.m3u8?channel-id=wasusyt&Contentid=6000000002000003382&livemode=1&stbId=3
黑莓电影,http://[2409:8087:2001:20:2800:0:df6e:eb04]/ott.mobaibox.com/PLTV/3/224/3221225567/index.m3u8
黑莓动画,http://[2409:8087:1a01:df::7005]/ottrrs.hl.chinamobile.com/PLTV/88888888/224/3221225662/index.m3u8
哒啵电竞,http://[2409:8087:7000:20::4]/dbiptv.sn.chinamobile.com/PLTV/88888888/224/3221226951/index.m3u8
哒啵赛事,http://[2409:8087:1a01:df::7005]/ottrrs.hl.chinamobile.com/PLTV/88888888/224/3221225675/index.m3u8
乐游,http://[2409:8087:7000:20:1000::22]:6060/yinhe/2/ch00000090990000002157/index.m3u8?virtualDomain=yinhe.live_hls.zte.com
纪实人文,http://[2409:8087:2001:20:2800:0:df6e:eb12]/wh7f454c46tw1293235676_155310184/ott.mobaibox.com/PLTV/3/224/3221227635/index.m3u8?icpid=3&RTS=1669704189&from=40&popid=40&hms_devid=2112&prioritypopid=40&vqe=3
纯享4K,http://[2409:8087:2001:20:2800:0:df6e:eb11]/ott.mobaibox.com/PLTV/3/224/3221228242/index.m3u8
风云剧场,http://[2409:8087:7001:20:2::3]:80/dbiptv.sn.chinamobile.com/PLTV/88888893/224/3221226950/index.m3u8
风云音乐,http://[2409:8087:7001:20:2::3]:80/dbiptv.sn.chinamobile.com/PLTV/88888893/224/3221226953/index.m3u8
第一剧场,http://[2409:8087:7001:20:2::3]:80/dbiptv.sn.chinamobile.com/PLTV/88888893/224/3221226959/index.m3u8
女性时尚,http://[2409:8087:7001:20:2::3]:80/dbiptv.sn.chinamobile.com/PLTV/88888893/224/3221226969/index.m3u8
风云足球,http://[2409:8087:7001:20:2::3]:80/dbiptv.sn.chinamobile.com/PLTV/88888893/224/3221226984/index.m3u8
兵器科技,http://[2409:8087:7001:20:2::3]:80/dbiptv.sn.chinamobile.com/PLTV/88888893/224/3221226975/index.m3u8
怀旧剧场,http://[2409:8087:7001:20:2::3]:80/dbiptv.sn.chinamobile.com/PLTV/88888893/224/3221226972/index.m3u8
世界地理,http://[2409:8087:7001:20:2::3]:80/dbiptv.sn.chinamobile.com/PLTV/88888893/224/3221226947/index.m3u8
文化精品,http://[2409:8087:7001:20:2::3]:80/dbiptv.sn.chinamobile.com/PLTV/88888893/224/3221226981/index.m3u8
央视台球,http://[2409:8087:7001:20:2::3]:80/dbiptv.sn.chinamobile.com/PLTV/88888893/224/3221226956/index.m3u8
高尔夫网球,http://[2409:8087:7001:20:2::3]:80/dbiptv.sn.chinamobile.com/PLTV/88888893/224/3221226978/index.m3u8
电视指南,http://[2409:8087:7001:20:2::3]:80/dbiptv.sn.chinamobile.com/PLTV/88888893/224/3221226987/index.m3u8
都市剧场,http://[2409:8087:7000:20::4]:80/dbiptv.sn.chinamobile.com/PLTV/88888888/224/3221226581/1.m3u8
金色学堂,http://[2409:8087:7000:20:1000::22]:6060/yinhe/2/ch00000090990000002675/index.m3u8?virtualDomain=yinhe.live_hls.zte.com
哈哈炫动,http://[2409:8087:1a01:df::7005]:80/ottrrs.hl.chinamobile.com/PLTV/88888888/224/3221225657/index.m3u8
游戏风云,http://[2409:8087:7000:20::4]:80/dbiptv.sn.chinamobile.com/PLTV/88888888/224/3221226579/1.m3u8
欢笑剧场,http://[2409:8087:7000:20::4]:80/dbiptv.sn.chinamobile.com/PLTV/88888888/224/3221226582/1.m3u8
第一财经,http://[2409:8087:7001:20:2::3]:80/dbiptv.sn.chinamobile.com/PLTV/88888893/224/3221226966/index.m3u8
武术世界,http://[2409:8087:4c0a:22:1::11]:6410/170000001115/UmaiCHAN638078be5d654/index.m3u8?AuthInfo=toEYVdLfxymUP2l9NZpQI5%2BK6T7j%2FlRm%2BvbM9VO7bA0MVaBO3fffRWKM%2FzNpNYjRBAiSJylXYBAiox0V94ejMfwEtXXuH8b8M%2F%2FDznZB61s
文物宝库,http://[2409:8087:4c0a:22:1::11]:6410/170000001115/UmaiCHAN638078a346161/index.m3u8?AuthInfo=toEYVdLfxymUP2l9NZpQI5%2BK6T7j%2FlRm%2BvbM9VO7bA199v9hZiIrZ%2B5X675R6%2FGDjgcqn5UaJ6D814KM9%2FvF7QwvFfeEXMAK7LltfEC%2FKQQ
梨园,http://[2409:8087:4c0a:22:1::11]:6410/170000001115/UmaiCHAN6380788ba7bed/index.m3u8?AuthInfo=toEYVdLfxymUP2l9NZpQI5%2BK6T7j%2FlRm%2BvbM9VO7bA0q1S1k1f36SqqriM0FZoFSAJRfCt8SS7X6sTRmXb81a8O4H%2FdroDKjLoDeaMQdyJQ
天元围棋,http://[2409:8087:2001:20:2800:0:df6e:eb23]/ott.mobaibox.com/PLTV/3/224/3221228513/index.m3u8
弈坛春秋,http://[2409:8087:7004:20:1000::22]:6610/yinhe/2/ch00000090990000001322/index.m3u8?virtualDomain=yinhe.live_hls.zte.com
劲爆体育,http://[2409:8087:7000:20:1000::22]:6060/yinhe/2/ch00000090990000001326/index.m3u8?virtualDomain=yinhe.live_hls.zte.com
测试频道,#genre#
CHC高清电影,http://m.liuxiaobo.top:8888/udp/239.69.1.241:11088#http://113.17.36.38:5050/udp/239.81.0.240:4056#http://111.167.226.241:4022/udp/225.1.1.214:5002#http://106.57.1.156:55555/udp/239.200.201.34:8148#http://119.98.95.105:8888/rtp/239.69.1.241:11088#http://112.235.202.141:9901/tsfile/live/1012_1.m3u8#http://1.82.70.21:8009/rtp/239.112.205.206:5140#http://219.157.170.46:8888/rtp/225.1.4.207:1260#http://fxgm.fxjf.work:19901/tsfile/live/1016_1.m3u8#http://118.251.61.27:8888/udp/239.76.245.242:1234#http://171.109.225.113:8181/tsfile/live/1017_1.m3u8#http://119.54.4.205:9999/hls/91/index.m3u8#http://124.235.218.160:30007/rtp/239.37.0.187:5540#http://119.54.4.142:9999/hls/91/index.m3u8#http://171.116.98.85:8004/rtp/226.0.2.93:8004#http://171.109.225.182:8181/tsfile/live/1017_1.m3u8#http://119.54.15.185:9999/hls/91/index.m3u8
CHC动作电影,http://m.liuxiaobo.top:8888/udp/239.69.1.242:11094#http://113.17.36.38:5050/udp/239.81.0.239:4056#http://111.167.226.241:4022/udp/225.1.1.215:5002#http://106.57.1.156:55555/udp/239.200.201.31:8144#http://119.98.95.105:8888/rtp/239.69.1.242:11094#http://112.235.202.141:9901/tsfile/live/1011_1.m3u8#http://1.82.70.21:8009/rtp/239.112.205.207:5140#http://219.157.170.46:8888/rtp/225.1.4.208:1261#http://fxgm.fxjf.work:19901/tsfile/live/1015_1.m3u8#http://118.251.61.27:8888/udp/239.76.245.243:1234#http://171.109.225.113:8181/tsfile/live/1016_1.m3u8#http://119.54.4.205:9999/hls/90/index.m3u8#http://124.235.218.160:30007/rtp/239.37.0.186:5540#http://119.54.4.142:9999/hls/90/index.m3u8#http://171.116.98.85:8004/rtp/226.0.2.94:8012#http://171.109.225.182:8181/tsfile/live/1016_1.m3u8#http://119.54.15.185:9999/hls/90/index.m3u8
CHC家庭影院,http://m.liuxiaobo.top:8888/udp/239.69.1.243:11100#http://113.17.36.38:5050/udp/239.81.0.238:4056#http://111.167.226.241:4022/udp/225.1.1.213:5002#http://106.57.1.156:55555/udp/239.200.201.30:8140#http://119.98.95.105:8888/rtp/239.69.1.243:11100#http://112.235.202.141:9901/tsfile/live/1010_1.m3u8#http://1.82.70.21:8009/rtp/239.112.205.205:5140#http://219.157.170.46:8888/rtp/225.1.4.209:1262#http://fxgm.fxjf.work:19901/tsfile/live/1014_1.m3u8#http://118.251.61.27:8888/udp/239.76.245.241:1234#http://171.109.225.113:8181/tsfile/live/1015_1.m3u8#http://119.54.4.205:9999/hls/92/index.m3u8#http://124.235.218.160:30007/rtp/239.37.0.188:5540#http://119.54.4.142:9999/hls/92/index.m3u8#http://171.116.98.85:8004/rtp/226.0.2.240:9820#http://171.109.225.182:8181/tsfile/live/1015_1.m3u8#http://119.54.15.185:9999/hls/92/index.m3u8
长影频道,http://119.54.15.185:9999/hls/28/index.m3u8#http://61.138.128.226:19901/tsfile/live/1010_1.m3u8#http://124.235.218.160:30007/rtp/239.37.0.125:5540#http://119.54.4.205:9999/hls/28/index.m3u8
峨眉电影,http://118.113.110.190:8888/udp/239.93.0.252:5140#http://182.136.161.176:8888/udp/239.93.0.252:5140#http://182.150.169.110:5555/udp/239.93.0.252:5140
东方影视,http://116.233.179.214:10000/udp/239.45.3.237:5140#http://116.232.130.50:8888/udp/239.45.3.237:5140#http://116.232.130.50:8888/udp/239.45.3.237:5140
淘电影,http://111.193.225.28:8888/rtp/239.3.1.250:8001#http://221.219.68.95:4000/rtp/239.3.1.250:8001#http://114.253.247.196:14000/rtp/239.3.1.250:8001#http://124.64.236.52:8012/rtp/239.3.1.250:8001#http://123.112.210.212:4022/rtp/239.3.1.250:8001#http://115.171.80.101:8888/udp/225.1.8.38:8002#http://1.203.184.77:4000/udp/225.1.8.38:8002
淘剧场,http://111.193.225.28:8888/rtp/239.3.1.95:8001#http://221.219.68.95:4000/rtp/239.3.1.95:8001#http://114.253.247.196:14000/rtp/239.3.1.95:8001#http://124.64.236.52:8012/rtp/239.3.1.95:8001#http://123.112.210.212:4022/rtp/239.3.1.95:8001#http://115.171.80.101:8888/udp/225.1.8.37:8002#http://1.203.184.77:4000/udp/225.1.8.37:8002
淘娱乐,http://111.193.225.28:8888/rtp/239.3.1.100:8001#http://221.219.68.95:4000/rtp/239.3.1.100:8001#http://114.253.247.196:14000/rtp/239.3.1.100:8001#http://124.64.236.52:8012/rtp/239.3.1.100:8001#http://123.112.210.212:4022/rtp/239.3.1.100:8001#http://115.171.80.101:8888/udp/225.1.8.61:8002#http://1.203.184.77:4000/udp/225.1.8.61:8002
凤凰中文,http://113.64.145.141:8081/hls/37/index.m3u8#http://117.28.130.140:8888/rtp/239.61.2.184:9092#http://118.113.157.65:4022/udp/239.93.0.162:2192#http://118.113.110.190:8888/udp/239.93.0.162:2192#http://182.136.161.176:8888/udp/239.93.0.162:2192#http://120.40.56.244:8888/rtp/239.61.2.184:9092#http://118.113.234.63:9999/udp/239.93.0.162:2192#http://60.163.12.197:8888/rtp/233.50.200.191:5140#http://60.187.238.209:8888/rtp/233.50.200.191:5140
凤凰资讯,http://113.64.145.141:8081/hls/36/index.m3u8#http://117.28.130.140:8888/rtp/239.61.2.183:9086#http://118.113.157.65:4022/udp/239.93.0.118:2191#http://118.113.110.190:8888/udp/239.93.0.118:2191#http://182.136.161.176:8888/udp/239.93.0.118:2191#http://120.40.56.244:8888/rtp/239.61.2.183:9086#http://118.113.234.63:9999/udp/239.93.0.118:2191#http://60.163.12.197:8888/rtp/233.50.200.192:5140#http://60.187.238.209:8888/rtp/233.50.200.192:5140
凤凰香港,http://198.16.100.90:8278/hkphoenix_twn/playlist.m3u8?tid=MACA2858291128582911&ct=19225&tsum=0f01288bbaa6c0403d07e96b0a5db4ed#http://198.16.100.90:8278/hkphoenix_twn/playlist.m3u8?tid=MD0D2495250724952507&ct=19249&tsum=b1c0a577a7f4aaa9af143d124ba24a40#https://s2.pub/cctv-1
翡翠台,https://s2.pub/cctv-4
无线新闻,https://s2.pub/cctv-12
TVBJ1,https://bcovlive-a.akamaihd.net/e360e3f9895c4fae99b133ec8dc20f01/us-west-2/5324042807001/4a3bca5b047b4564b18bb12dfa26ba62/playlist_ssaiM.m3u8
J2,https://s2.pub/cctv-5
明珠台,https://s2.pub/cctv-6
TVB星河,https://s2.pub/cctv-16
莲花卫视,https://p.ggiptv.com/v/macaulotustv.php#http://moss.hk3.345888.xyz.cdn.cloudflare.net/11/lotus.php
澳视澳门,http://nz189l149.bb27109.ctm.net:8891/bysid/91
澳门资讯,http://nz189l149.bb27109.ctm.net:8891/bysid/94
澳门Macau,http://nz189l149.bb27109.ctm.net:8891/bysid/96
澳亚卫视,https://live.mastvnet.com/lsdream/lY44pmm/2000/live.m3u8
东森新闻台,https://s2.pub/cctv-18
亚洲旅游,http://198.16.100.90:8278/asiatravel_twn/playlist.m3u8?tid=MF2F4967516549675165&ct=19225&tsum=3b56404a8f861c7fef6ac79a798e4a8c#http://50.7.238.114:8278/asiatravel_twn/playlist.m3u8?tid=ma9ec30da9ef3&ct=18335&tsum=ff0bd9207f2c72a8c9bf38464433dc7d
纬来日本,rtmp://f13h.mine.nu/sat/tv771
纬来育乐,rtmp://f13h.mine.nu/sat/tv701
MoMo综合,rtmp://f13h.mine.nu/sat/tv761
东森超视,rtmp://f13h.mine.nu/sat/tv331
港澳台,#genre#
J2[geo-blocked],https://epg.pw/stream/35be49526efe9576baa6ecdfacd7c7b7a91e12d4991a5c65bebfe97313d8aa81.ctv
RTHK31,https://epg.pw/stream/656aed4c947cc765dd07ad4d546c1f327a50e44faad5fd28e36610db830df9d0.ctv
RTHK31[geo-blocked],https://epg.pw/stream/8722fa716c27f2cb06b7e5e358bfeff5217167a47018364fcf05567da8f571e5.ctv
RTHK31,https://epg.pw/stream/cabd18457f278cda40ac160bccabf77a6b0ad341e50a00bd62620d78819dd220.m3u8
TVB J2,https://epg.pw/stream/1936e0180ebd92426c3868ef2bdd66c8217fbe9b33c7061122dc46c27ae56c78.ctv
TVB J2[geo-blocked],https://epg.pw/stream/0538ba224aaf885179ea745b10e19769b9c92ee8cf2e27bd12aa101955da0fcb.ctv
TVB J2[geo-blocked],https://epg.pw/stream/9a785bebd7cf671d3e5a7dbac74ffb79496585788e9af2bb60760b44109c84ff.ctv
TVB娛樂新聞[geo-blocked],https://epg.pw/stream/57737ed82a70288e90bca3ef3b9e7ed3e8b896445947908bd76d4ed3c4ba6c43.m3u8
ViuTVsix[geo-blocked],https://epg.pw/stream/4c88025ced2e3e2354180f93d2292f6c561ada9c062921993dceea0bd6d8cb2c.ctv
c channel[geo-blocked],https://epg.pw/stream/48676c7be0315ec2b5814591a62aa61cfe581479231b66c64fb6d485b5c7d358.m3u8
tvb娛樂新聞,https://epg.pw/stream/129148399c951de40a4cff7cc62787466f1b6df54c1c44216760dbc9395dc0a3.m3u8
ASTRO华丽(翡MAS)[geo-blocked],https://epg.pw/stream/f423c646c668408416597a94917b9989616d3f109ae46c059703b9653b920678.ctv
ASTRO华丽(翡MAS)[geo-blocked],https://epg.pw/stream/f9164afa8e2b8ed648cb3d903dbc547ed2035f3dd210c1dada7a0f8a4ba7a867.ctv
ASTRO华丽(翡MAS)[geo-blocked],https://epg.pw/stream/710b4f39ca480891c939fb920c7f231827336eedb69d51c0c87a64df59edfc16.ctv
ASTRO华丽(翡MAS)[geo-blocked],https://epg.pw/stream/ed3cb928cc3a187bd6456c7562f0f0a99c08f065b5177134aee9931518cc61f5.ctv
ASTRO华丽(翡MAS)[geo-blocked],https://epg.pw/stream/22b22f17f5e73410b9d89aaffa11235171a6acb26d2e0e32c1063ac6d98e6ae8.ctv
ASTRO华丽(翡MAS)[geo-blocked],https://epg.pw/stream/6d9e45832bbf9d7fc8a500b6a6c0d564b1f99e13c6abfdce537382c94c0f91d8.ctv
ASTRO华丽(翡MAS)[geo-blocked],https://epg.pw/stream/58c619a18842cc5c82ff4b97013c92ec4f7af5085daa31db6da2c8d0daa5e7d8.ctv
ASTRO华丽(翡MAS)[geo-blocked],https://epg.pw/stream/445879a6bc6e6b9b05299ae0e5948eed9c918a104564c3f1c38aa40195714d6a.ctv
ASTRO华丽(翡MAS)[geo-blocked],https://epg.pw/stream/1e6428febeb23091887bfae46ae9c0ea1bf0f06081fea1328e318a41ae011066.ctv
ASTRO华丽(翡MAS)[geo-blocked],https://epg.pw/stream/c643848d754c1712162682c4776c385e7a10a42b84d182d3d3a2bbefd15c3147.ctv
ASTRO华丽(翡MAS)[geo-blocked],https://epg.pw/stream/8c740c2a1ff9d2045244e99d007a4414cfb2606659e997fb5e9526792ce4f4b9.ctv
ASTRO华丽(翡MAS)[geo-blocked],https://epg.pw/stream/9844e656e3c825bf567e65700b778253cd3845746c04ed4381ffc35ef1e1c486.ctv
ASTRO华丽(翡MAS)[geo-blocked],https://epg.pw/stream/87424e9fb6e25b9b628bfa3e327e65e73a57c9f83c09f8abd479b1f3d062ea49.ctv
ASTRO华丽(翡MAS)[geo-blocked],https://epg.pw/stream/ddedf632ce91681c3f61f742fed863509e419bd1942dc1aec59dbe04f859d87d.ctv
ASTRO华丽(翡MAS)[geo-blocked],https://epg.pw/stream/d286d72ac8a3cd6fb43998fa5fdd35d77e3b11d40636df821fa5c2f9945c3445.ctv
ASTRO华丽(翡MAS)[geo-blocked],https://epg.pw/stream/9e2e895946b8ab2a57fb1efa05907c11e8e4f89f3f802610bc8541e9ff59bfad.ctv
ASTRO华丽(翡MAS)[geo-blocked],https://epg.pw/stream/54dd2989f4925a37f298b6d9672b2b2f74a59946df85b8d138b0ffe4075626f7.ctv
ATV WORLD[geo-blocked],https://epg.pw/stream/08f572e03fb04a0e394febb2e2d08082cedc4ecba339019008f471731e6a8f88.m3u8
ATV WORLD,https://epg.pw/stream/de78a5bddc78a16751b32abeef85fd892da97babeef58e21739986cfc5df0371.m3u8
ATV WORLD,https://epg.pw/stream/64e5c92bdc0b9841a5f1679170c4c1f2165ec74c06a966bc3b3281f5e73da1b2.m3u8
Pearl,https://epg.pw/stream/3ce97e80d81f8f3a2626acb024afe18285832eb51c609946e365a9974ef74cba.ctv
Pearl,https://epg.pw/stream/d10537b7c7bd5042706a9bf58776a08a4c2cbc09a65d612db415bc14ee1b9a13.ctv
Pearl[geo-blocked],https://epg.pw/stream/71166eef439819ec642842626350556e77063f3f206f1221f56e415f62e49e9d.ctv
翡翠台HD,https://epg.pw/stream/7c3d4bc5134d2bb72480f4bfc4f44239dd9fcae2431d6162411062ce4f076f98.ctv
Viu TV,https://epg.pw/stream/bb59f78bb7727ff9807a49dd25e65e86375466e8334cd0d08e7de7ca0995f29a.ctv
Viu TV,https://epg.pw/stream/44fb8f7cbce4cd77722c6e084c04b96cf06cf08014a5054d7265015d6adaba5a.ctv
Viu TV[geo-blocked],https://epg.pw/stream/e063ee2925c2160d15c5804e61dd4d09836ce2cfeb22d89e7c90f7491270a68d.m3u8
Viu TV,https://epg.pw/stream/813fe962130bf27d85d2a8f6114a7fb066f40b7323165ce8c3bc26ff0cb5ef7f.m3u8
鳳凰衛視[geo-blocked],https://epg.pw/stream/39d50ab14e9d515c7712e21884ce9b40882ac45cbdaf50c2c30f54fef97d21b4.ctv
鳳凰衛視,https://epg.pw/stream/e7c962221dbff35372616ecf33921a1e4fe9f0418de61426988a9f0334ebace6.ctv
鳳凰衛視[geo-blocked],https://epg.pw/stream/64af1f1dbf226d8a106c11ae081ac6cafcab64544071604c6de3bff238456092.ctv
鳳凰衛視[geo-blocked],https://epg.pw/stream/9495655f1e1443bfbb224f359c85aec951f2d602725e0b653c45425407c8b41d.ctv
鳳凰衛視[geo-blocked],https://epg.pw/stream/625d7f6cd1fb94797f8335a937534d7d81e92741099a1b1a837315d490ace9d7.ctv
鳳凰衛視[geo-blocked],https://epg.pw/stream/757a217b1c0986176da393d43543c64f50f6b61cbe22cdcbb99efa84f692fe79.ctv
鳳凰衛視,https://epg.pw/stream/4449f787f5ea0c3b693485107c2f18722fb73ffe25173e86b3a6c88ee50f8f28.m3u8
鳳凰衛視,https://epg.pw/stream/aa98dcd3447197ff2a08c7605c93929ee0b5df9e0975a1b60f454f543317ff1e.m3u8
鳳凰衛視,https://epg.pw/stream/bed861174ca3f5d4dd96d8bfc52fd0e2990a69c3e02324ef736495435192d7fa.m3u8
鳳凰衛視,https://epg.pw/stream/e6886dbde2158fbb51da8cd6db21e2bb5fb68f4e5aa4db51e3589f30c20a13d8.m3u8
鳳凰衛視,https://epg.pw/stream/c77a6c3e914fd27b23140776fce89ecf408b6e3adb44621bef4ffce24931d730.m3u8
ช่อง discovery kids hindi,https://epg.pw/stream/8cb6bea748427bbc2cc171e39457f629f39d6342f744a333ba85800a18c579d4.m3u8
TVB亞洲劇,https://epg.pw/stream/c88adc69fe22cc05c7ff2984ad14db99f461e6dda12687cb7bbaf5e03a357a38.m3u8
TVB亞洲劇,https://epg.pw/stream/a4696392133577ed03dbedefe5c18c3c7a178b0899b2f814fa6c532bc521f8f4.m3u8
TVB亞洲劇,https://epg.pw/stream/5bf2b1b6e25985960785ccef6dc0acddc7424b6fc178ba1530817265e730f56f.m3u8
TVB亞洲劇,https://epg.pw/stream/546bdd4b82259d8d136893bafc3b1fa4dec137fb88ab10b9fa02b7469bc83a0c.m3u8
TVB亞洲劇,https://epg.pw/stream/df891b505a8433ebc8b75612066a1cc25b14149d1d52136d6c5e3b19e86aa6cf.m3u8
TVB亞洲劇,https://epg.pw/stream/3ac58ed08ada7fe3ab14bdbb13805a81339d7f9a66b0753a51af051a4ddfddf0.m3u8
TVB亞洲劇,https://epg.pw/stream/bce244fa023794cc786b2de797ae2b66b630c1a93aa2f23d2ad31ab0045d830a.m3u8
TVB亞洲劇,https://epg.pw/stream/7843556b9457c79f5185c8dc71e2c07c55dc12b034635c8075a8847163f8b483.m3u8
TVB星河[geo-blocked],https://epg.pw/stream/eee97f3ab8d484adff720fc3c90eb1f280b02264d5d2e3971262bb416aab5767.m3u8
TVB星河,https://epg.pw/stream/3388eca1a9b5d5c9a7da8bd8b4da3460113b22b0582b44f51a8111fc90f91749.m3u8
天映頻道,https://epg.pw/stream/e6e326ff18624c5a513d9663ed91a0aae2c5d30a6baca900796bb58f2a619f94.m3u8
恐怖电影[geo-blocked],https://epg.pw/stream/23e67d0411967f24179857780e9915934224f032f582ee4e82cc7da2b9bc3c24.ctv
鳳凰電影,https://epg.pw/stream/00ea4ae5e10fa8a781c213d369540e54a2366fc4018566bc7cbd306ff4bd680e.m3u8
鳳凰電影,https://epg.pw/stream/9ed301e39bb8ca159e243f22b480bf96dd911e48e89709a29959a5aab65608cf.ctv
鳳凰電影,https://epg.pw/stream/eb5c379a2d045382ce7f8ffa78e5b7d184a3c44fffe574d72e3fab54a7d696f7.ctv
HOY TV[geo-blocked],https://epg.pw/stream/8363d78f0961a217b8391a528607c0907d0396c40d1bdf828b30aa9aa0358fea.m3u8
HOY TV[geo-blocked],https://epg.pw/stream/435774637b62bfc3d037127b5a59e956dc250a326c722f83ee416c11ca2e1963.ctv
RTHK32,https://epg.pw/stream/f89d11f3ffa194ba41d136cad3a82e6c99dca140cfb015551b10d35c995cd65b.ctv
RTHK32[geo-blocked],https://epg.pw/stream/32c03d40ac25db200f05551ace248b8cf2b807859aab2888e78227870ebadf67.ctv
RTHK33,https://epg.pw/stream/3cd84be1fb3623f1c3ba7d3d26e3d607331255d6559bd3e6ded774a1ff7c2b89.m3u8
RTHK33[geo-blocked],https://epg.pw/stream/b6a5f89266b740a43b7231afcffc2cce5c46e8dc2f3b8d8df3b9efd3c9460c20.ctv
RTHK33,https://epg.pw/stream/7784f202591797be966bdec85d8d6e73e53bab96368869e775a142e8ffeaf93c.m3u8
RTHK34[geo-blocked],https://epg.pw/stream/f8729f0e34b57e482f8d98dc667a7689215b4f677f43ce90408e9a8fff157fec.ctv
RTHK34,https://epg.pw/stream/16e85bed392dd123c9d057343c09e2310c6975d4866da8c92f7b0127fa865523.m3u8
RTHK34,https://epg.pw/stream/6e369058eba43ac78a0c076f78eaa1227afd471bdccf9df70077738d1152e0ba.m3u8
RTHK34,https://epg.pw/stream/8dc8b380861cc994bb3d9bb64f415d0d313eef5c60b5efbec01551f461837c92.m3u8
TVB新聞臺[geo-blocked],https://epg.pw/stream/ef62e76a9b9ebfa3c8e6aeaaf5b71ee1299d4e9c7d029ec3f55532208f5f1e8b.m3u8
TVB新聞臺,https://epg.pw/stream/e5ea85f8c05b463598deb2bd3490272191a18b6235807e15ce8876809c014396.m3u8
TVB新聞臺,https://epg.pw/stream/45b72acdc2cd146b4f103a6728efe468f65c59b65c48f13b61b36fb150ea79af.m3u8
TVB新聞臺,https://epg.pw/stream/e2af60cf6dea28b8136c21796a94e05031f44660c587b638ef03b825f90432bf.m3u8
TVB新聞臺,https://epg.pw/stream/e42d43f285697c54fa100b46d6d52457f908037ab23032ca681bd7ff026c7b97.m3u8
TVB新聞臺[geo-blocked],https://epg.pw/stream/98bb6524ea5fecbe2a86febf9c903c49091e4565708e2e06c7a7f227f19638bf.m3u8
TVB新聞臺,https://epg.pw/stream/dc88e4bb8165db1af83d0c571b8260a21c248841a2f1c8c44a2bbf840ea50eea.m3u8
TVB新聞臺,https://epg.pw/stream/3a8d129a03f92db91cefa8f474b876f921d9b1b8346b42b1be50e7bcc7287940.m3u8
TVB新聞臺,https://epg.pw/stream/45d33ca5afea92dd6248b82a27157a4ba65d57d77c3033903754cb294c65f0e3.ctv
TVB新聞臺,https://epg.pw/stream/20437def92737d48f5b3dff38a62cc6c83f9174e57c2a913608dd4eaef9da3a8.m3u8
tvbs新闻,https://epg.pw/stream/34b62c472f066e823052d269c322b8dc8150262fa8022acd359cd6702296b794.m3u8
tvbs新闻,https://epg.pw/stream/e1b06708966384bf7d79e4a10adca7a1b9905bf5a9937e761803f43bd9eb8d21.m3u8
tvbs新闻,https://epg.pw/stream/2a49eb36af527b0616b65bcace864c0283be72277677217a0083febd7e07cfc7.m3u8
有线新闻台[geo-blocked],https://epg.pw/stream/f5ce037a8e9402092d082473ad564342743a83b1ca784cff0df90236ee980fa9.m3u8
有线新闻台[geo-blocked],https://epg.pw/stream/b70ab7adf7ca2742bafe6b734a8423d2e1c24656ab084d2097a647693d463f29.m3u8
有线新闻台,https://epg.pw/stream/fa725c21b457ccb2a030aa1febf8143b32e64a705ef842bac4dda6bb1c13f2bf.m3u8
有线新闻台,https://epg.pw/stream/d51cb354166be0099c5d4fcfd3484b6e6a83849a6dafeaa7a625f2a2fbe24e5f.m3u8
有线新闻台[geo-blocked],https://epg.pw/stream/4e24596fde9c243eb4302e394190972407ee674c0c6a06ea6be4e5d349582cbe.m3u8
有线新闻台,https://epg.pw/stream/63b7c2d407cfa08936f3ba0654dda7d631b52bf81ea07492219dae2cd78f67cd.m3u8
有线新闻台,https://epg.pw/stream/239d04c2729e4f0669c36fbf1b7518407435278ef3150621b999f14137f0f3f3.ctv
有线新闻台,https://epg.pw/stream/62de1488de6d094fddcbafd642b00abd04b1b64bfa9fc78485895a51ecfb90f7.m3u8
有线新闻台[geo-blocked],https://epg.pw/stream/ddcee8ae223200a8e79c3d10f153c7b9ad14ead3449536d9cf0d3a7272aef0f8.m3u8
有线新闻台,https://epg.pw/stream/cea645ef7ddbe09e2dfeaffd5c9c6530e08b8d82a1a648cce5e12e264f3662b4.m3u8
有线新闻台,https://epg.pw/stream/10311148721256637f60daaa945232de2d91db13870451c92a743a4d24ee08d0.m3u8
有线新闻台,https://epg.pw/stream/85796ae4baf49d8d418849d5a8de11cc916a8c6e0c4b3671ee058e4516bd355d.m3u8
有线新闻台[geo-blocked],https://epg.pw/stream/a546fb9f46c4fbd26bfe5b62692b029b734cb147ea737d9bd0e525822acb1a45.m3u8
有线财经资讯,https://epg.pw/stream/e82c1cb2d8c23b892f8ff1ddedd4235df215dc4af511fccfe823471582bda4a0.m3u8
有线财经资讯,https://epg.pw/stream/e536b24d25d65a1e5ba8dad6f1762956d955f9d857068f79aa03386a75638d17.m3u8
無線新聞台[geo-blocked],https://epg.pw/stream/7673962ca22c9a4a0c3082d40a3374943c5d26c4113634b42306933c642ebc08.ctv
無線新聞台,https://epg.pw/stream/24ad86b6b170c8279e4b2961c998b8f0837e3217812ead12388ec930f2cb4ca8.ctv
無線新聞台,https://epg.pw/stream/1d57a34778340406c923ddde53b9bbfd4903d711783cf2d6eda414ce79d59f07.ctv
無線財經台,https://epg.pw/stream/9a5717216f8e5e6563211d66d2867374bfdfdd8a9ee8c48b0de2ddcb3a1f9b0d.ctv
無線財經台[geo-blocked],https://epg.pw/stream/4cfbd8042c72a22081ceec0c87e7bb7ded78a5ea32bb6f709e5375a7304b8d1c.ctv
無線財經台,https://epg.pw/stream/9ca1f3469a784e5997990c4d36181ed0bcb139705b1484ffe91562909b011614.m3u8
無線財經台,https://epg.pw/stream/5ac2b4268643c1726650960a7fa886e41b9c9db47c5f640c1ab0743bf6669b1c.ctv
耀才財經台,https://epg.pw/stream/c1e96c9d6e38145f7631fd9561f310261ef82a236544f7a1770cd1c6479cf2fe.m3u8
耀才財經台,https://epg.pw/stream/30a1630dfb62c3260e2621263d459105380386fb9228611255d41360969c4a2e.m3u8
耀才財經台,https://epg.pw/stream/3cb5dbb74bbbd3150891cf1795ae042b33baf187a619dc4ac42aa860dc85bf8e.m3u8
耀才財經台,https://epg.pw/stream/72e6d938d023bbb1ad2c783c86273475d217a32541d77fb5c4113cfe7ae02b2b.m3u8
香港國際財經台[geo-blocked],https://epg.pw/stream/d7d42738d28d82242956de378400f29c137bb4844173f1517b19bad0dd5c95d5.m3u8
凤凰中文,http://[2409:8087:2001:20:2800:0:df6e:eb22]:80/ott.mobaibox.com/PLTV/3/224/3221228527/1.m3u8
凤凰资讯,http://[2409:8087:2001:20:2800:0:df6e:eb19]:80/ott.mobaibox.com/PLTV/3/224/3221228524/1.m3u8
凤凰香港,http://[2409:8087:2001:20:2800:0:df6e:eb22]:80/ott.mobaibox.com/PLTV/1/224/3221228530/1.m3u8
凤凰资讯 8M1080,http://hwrr.jx.chinamobile.com:8080/PLTV/88888888/224/3221226274/index.m3u8
凤凰香港 8M1080,http://hwrr.jx.chinamobile.com:8080/PLTV/88888888/224/3221226251/index.m3u8
凤凰中文,http://[2409:8087:2001:20:2800:0:df6e:eb22]:80/ott.mobaibox.com/PLTV/3/224/3221228527/index.m3u8#http://dbiptv.sn.chinamobile.com/PLTV/88888890/224/3221226547/index.m3u8
凤凰资讯,http://[2409:8087:2001:20:2800:0:df6e:eb19]:80/ott.mobaibox.com/PLTV/3/224/3221228524/index.m3u8#http://dbiptv.sn.chinamobile.com/PLTV/88888890/224/3221226546/index.m3u8
凤凰香港,http://[2409:8087:2001:20:2800:0:df6e:eb23]:80/ott.mobaibox.com/PLTV/1/224/3221228530/1.m3u8
#EXTINF:-1 tvg-id="141" tvg-name="凤凰中文" tvg-logo="https://mirror.ghproxy.com/https://raw.githubusercontent.com/wanglindl/TVlogo/main/img/Phoenix1.png" group-title="国际",凤凰中文
http://[2409:8087:2001:20:2800:0:df6e:eb22]:80/ott.mobaibox.com/PLTV/3/224/3221228527/1.m3u8
#EXTINF:-1 tvg-id="142" tvg-name="凤凰资讯" tvg-logo="https://mirror.ghproxy.com/https://raw.githubusercontent.com/wanglindl/TVlogo/main/img/Phoenix2.png" group-title="国际",凤凰资讯
http://[2409:8087:2001:20:2800:0:df6e:eb19]:80/ott.mobaibox.com/PLTV/3/224/3221228524/1.m3u8
#EXTINF:-1 tvg-id="143" tvg-name="凤凰香港" tvg-logo="https://mirror.ghproxy.com/https://raw.githubusercontent.com/wanglindl/TVlogo/main/img/Phoenix3.png" group-title="国际",凤凰香港
http://[2409:8087:2001:20:2800:0:df6e:eb22]:80/ott.mobaibox.com/PLTV/1/224/3221228530/1.m3u8

NewTV频道,#genre#
JJ斗地主,http://tc-tct.douyucdn2.cn/dyliveflv1a/488743rAHScWyyII_2000.flv?wsAuth=fd695c444eeee99cc6122ed396c805ba&token=cpn-androidmpro-0-488743-df8b1830ef2e6ce156759645768df95bf77749da61fcc901&logo=0&expire=0&did=d010b07dcb997ada9934081c873542f0&origin=tct&vhost=play2
哒啵电竞,http://[2409:8087:7000:20::4]:80/dbiptv.sn.chinamobile.com/PLTV/88888888/224/3221226951/1.m3u8
哒啵赛事,http://[2409:8087:7000:20::4]:80/dbiptv.sn.chinamobile.com/PLTV/88888888/224/3221226954/1.m3u8
哒啵电竞,http://dbiptv.sn.chinamobile.com/PLTV/88888890/224/3221226951/index.m3u8
哒啵赛事,http://dbiptv.sn.chinamobile.com/PLTV/88888890/224/3221226954/index.m3u8
五星体育,http://[2409:8087:1e03:21::2]:6060/cms001/ch00000090990000001018/index.m3u8
五星体育,http://iptvrr.sh.chinamobile.com:6060/cms001/ch00000090990000001018/index.m3u8
五星体育,http://zteres.sn.chinamobile.com:6060/000000001000/2000000002000000007/1.m3u8?channel-id=hnbblive&Contentid=2000000002000000007&livemode=1&stbId=3
五星体育,http://zteres.sn.chinamobile.com:6060/000000001000/5000000010000017540/1.m3u8?channel-id=bestzb&Contentid=5000000010000017540&livemode=1&stbId=3
精品体育,http://[2409:8087:2001:20:2800:0:df6e:eb1a]:80/wh7f454c46tw520038825_-1252386603/ott.mobaibox.com/PLTV/3/224/3221227615/index.m3u8?icpid=3&RTS=1674380635&from=40&popid=40&hms_devid=2116&prioritypopid=40&vqe=3
精品体育,http://ottrrs.hl.chinamobile.com/PLTV/88888888/224/3221225674/index.m3u8
超级体育,http://[2409:8087:1a01:df::7005]:80/ottrrs.hl.chinamobile.com/PLTV/88888888/224/3221225715/index.m3u8
超级体育,http://ottrrs.hl.chinamobile.com/PLTV/88888888/224/3221225715/index.m3u8
超级电影,http://[2409:8087:1a01:df::7005]:80/ottrrs.hl.chinamobile.com/PLTV/88888888/224/3221225717/index.m3u8
超级电视剧,http://[2409:8087:1a01:df::7005]:80/ottrrs.hl.chinamobile.com/PLTV/88888888/224/3221225716/index.m3u8
东北热剧,http://[2409:8087:1a01:df::7005]:80/ottrrs.hl.chinamobile.com/PLTV/88888888/224/3221225741/index.m3u8
欢乐剧场,http://[2409:8087:1a01:df::7005]:80/ottrrs.hl.chinamobile.com/PLTV/88888888/224/3221225742/index.m3u8
海外剧场,http://[2409:8087:2001:20:2800:0:df6e:eb07]:80/wh7f454c46tw2056934744_1249676649/ott.mobaibox.com/PLTV/3/224/3221227539/index.m3u8?icpid=3&RTS=1674386467&from=40&popid=40&hms_devid=2036&prioritypopid=40&vqe=3
中国功夫,http://[2409:8087:2001:20:2800:0:df6e:eb19]:80/wh7f454c46tw1755251107_-1720510105/ott.mobaibox.com/PLTV/3/224/3221227530/index.m3u8?icpid=3&RTS=1674386165&from=40&popid=40&hms_devid=2113&prioritypopid=40&vqe=3
军事评论,http://[2409:8087:2001:20:2800:0:df6e:eb18]:80/wh7f454c46tw1555337016_-1312521077/ott.mobaibox.com/PLTV/3/224/3221227544/index.m3u8?icpid=3&RTS=1674385965&from=40&popid=40&hms_devid=2113&prioritypopid=40&vqe=3
军旅剧场,http://[2409:8087:2001:20:2800:0:df6e:eb06]:80/wh7f454c46tw1755552897_-1767851709/ott.mobaibox.com/PLTV/3/224/3221227603/index.m3u8?icpid=3&RTS=1674386165&from=40&popid=40&hms_devid=2036&prioritypopid=40&vqe=3
农业致富,http://[2409:8087:2001:20:2800:0:df6e:eb18]:80/wh7f454c46tw518731977_-1157191011/ott.mobaibox.com/PLTV/3/224/3221227588/index.m3u8?icpid=3&RTS=1674380634&from=40&popid=40&hms_devid=2113&prioritypopid=40&vqe=3
动作电影,http://[2409:8087:2001:20:2800:0:df6e:eb06]:80/wh7f454c46tw1555700033_-766721196/ott.mobaibox.com/PLTV/3/224/3221227606/index.m3u8?icpid=3&RTS=1674385966&from=40&popid=40&hms_devid=2036&prioritypopid=40&vqe=3
家庭剧场,http://[2409:8087:2001:20:2800:0:df6e:eb06]:80/wh7f454c46tw1555906766_991991415/ott.mobaibox.com/PLTV/3/224/3221227600/index.m3u8?icpid=3&RTS=1674385966&from=40&popid=40&hms_devid=2036&prioritypopid=40&vqe=3
怡伴健康,http://[2409:8087:2001:20:2800:0:df6e:eb19]:80/wh7f454c46tw1755404780_1268233995/ott.mobaibox.com/PLTV/3/224/3221227612/index.m3u8?icpid=3&RTS=1674386165&from=40&popid=40&hms_devid=2113&prioritypopid=40&vqe=3
惊悚悬疑,http://[2409:8087:2001:20:2800:0:df6e:eb19]:80/wh7f454c46tw1755704917_-721741365/ott.mobaibox.com/PLTV/3/224/3221227536/index.m3u8?icpid=3&RTS=1674386166&from=40&popid=40&hms_devid=2113&prioritypopid=40&vqe=3
明星大片,http://[2409:8087:2001:20:2800:0:df6e:eb18]:80/wh7f454c46tw1933970761_1509977631/ott.mobaibox.com/PLTV/3/224/3221227594/index.m3u8?icpid=3&RTS=1674386344&from=40&popid=40&hms_devid=2113&prioritypopid=40&vqe=3
武搏世界,http://[2409:8087:2001:20:2800:0:df6e:eb18]:80/wh7f454c46tw1556325430_664703954/ott.mobaibox.com/PLTV/3/224/3221227533/index.m3u8?icpid=3&RTS=1674385966&from=40&popid=40&hms_devid=2113&prioritypopid=40&vqe=3
潮妈辣婆,http://[2409:8087:2001:20:2800:0:df6e:eb19]:80/wh7f454c46tw517872146_-1764712284/ott.mobaibox.com/PLTV/3/224/3221227527/index.m3u8?icpid=3&RTS=1674380633&from=40&popid=40&hms_devid=2113&prioritypopid=40&vqe=3
炫舞未来,http://[2409:8087:2001:20:2800:0:df6e:eb08]:80/wh7f454c46tw519702850_-1512208436/ott.mobaibox.com/PLTV/3/224/3221227475/index.m3u8?icpid=3&RTS=1674380635&from=40&popid=40&hms_devid=2037&prioritypopid=40&vqe=3
爱情喜剧,http://[2409:8087:2001:20:2800:0:df6e:eb1b]:80/wh7f454c46tw1755855416_118028847/ott.mobaibox.com/PLTV/3/224/3221227548/index.m3u8?icpid=3&RTS=1674386166&from=40&popid=40&hms_devid=2116&prioritypopid=40&vqe=3
精品大剧,http://[2409:8087:2001:20:2800:0:df6e:eb1b]:80/wh7f454c46tw1755993626_-1194432913/ott.mobaibox.com/PLTV/3/224/3221227618/index.m3u8?icpid=3&RTS=1674386166&from=40&popid=40&hms_devid=2116&prioritypopid=40&vqe=3
精品纪录,http://[2409:8087:2001:20:2800:0:df6e:eb1b]:80/wh7f454c46tw1933659217_-1788924400/ott.mobaibox.com/PLTV/3/224/3221227547/index.m3u8?icpid=3&RTS=1674386344&from=40&popid=40&hms_devid=2116&prioritypopid=40&vqe=3
精品萌宠,http://[2409:8087:2001:20:2800:0:df6e:eb24]:80/wh7f454c46tw2442197200_-2076384633/ott.mobaibox.com/PLTV/3/224/3221228430/index.m3u8?icpid=3&RTS=1674369672&from=40&popid=40&hms_devid=2292&prioritypopid=40&vqe=3
金牌综艺,http://[2409:8087:2001:20:2800:0:df6e:eb19]:80/wh7f454c46tw2614190807_1624483481/ott.mobaibox.com/PLTV/3/224/3221227541/index.m3u8?icpid=3&RTS=1674387024&from=40&popid=40&hms_devid=2113&prioritypopid=40&vqe=3
东北热剧,http://ottrrs.hl.chinamobile.com/PLTV/88888888/224/3221225741/index.m3u8
中国功夫,http://ottrrs.hl.chinamobile.com/PLTV/88888888/224/3221225681/index.m3u8
军事评论,http://ottrrs.hl.chinamobile.com/PLTV/88888888/224/3221225668/index.m3u8
军旅剧场,http://ottrrs.hl.chinamobile.com/PLTV/88888888/224/3221225676/index.m3u8
农业致富,http://ottrrs.hl.chinamobile.com/PLTV/88888888/224/3221225683/index.m3u8
动作电影,http://ottrrs.hl.chinamobile.com/PLTV/88888888/224/3221225661/index.m3u8
家庭剧场,http://ottrrs.hl.chinamobile.com/PLTV/88888888/224/3221225677/index.m3u8
怡伴健康,http://ottrrs.hl.chinamobile.com/PLTV/88888888/224/3221225673/index.m3u8
惊悚悬疑,http://ottrrs.hl.chinamobile.com/PLTV/88888888/224/3221225665/index.m3u8
明星大片,http://ottrrs.hl.chinamobile.com/PLTV/88888888/224/3221225664/index.m3u8
欢乐剧场,http://ottrrs.hl.chinamobile.com/PLTV/88888888/224/3221225742/index.m3u8
武搏世界,http://ottrrs.hl.chinamobile.com/PLTV/88888888/224/3221225680/index.m3u8
海外剧场,http://ottrrs.hl.chinamobile.com/PLTV/88888888/224/3221225671/index.m3u8
潮妈辣婆,http://ottrrs.hl.chinamobile.com/PLTV/88888888/224/3221225685/index.m3u8
爱情喜剧,http://ottrrs.hl.chinamobile.com/PLTV/88888888/224/3221225669/index.m3u8
精品纪录,http://ottrrs.hl.chinamobile.com/PLTV/88888888/224/3221225672/index.m3u8
超级电影,http://ottrrs.hl.chinamobile.com/PLTV/88888888/224/3221225717/index.m3u8
超级电视剧,http://ottrrs.hl.chinamobile.com/PLTV/88888888/224/3221225716/index.m3u8
超级综艺,http://ottrrs.hl.chinamobile.com/PLTV/88888888/224/3221225714/index.m3u8
金牌综艺,http://ottrrs.hl.chinamobile.com/PLTV/88888888/224/3221225666/index.m3u8
精品萌宠,http://ottrrs.hl.chinamobile.com/PLTV/88888888/224/3221226505/index.m3u8
CHC动作电影,http://[2409:8087:7000:20:1000::22]:6060/yinhe/2/ch00000090990000002055/index.m3u8?virtualDomain=yinhe.live_hls.zte.com
CHC家庭影院,http://[2409:8087:7000:20:1000::22]:6060/yinhe/2/ch00000090990000002085/index.m3u8?virtualDomain=yinhe.live_hls.zte.com
CHC高清电影,http://[2409:8087:7000:20:1000::22]:6060/yinhe/2/ch00000090990000002065/index.m3u8?virtualDomain=yinhe.live_hls.zte.com

百视有线,#genre#
百视TV1,https://bp-caster.bestv.com.cn/954/3/video.m3u8
百视TV2,https://bp-caster.bestv.com.cn/926/3/video.m3u8
百视TV3,https://bp-caster.bestv.com.cn/945/3/video.m3u8
百视TV4,https://bp-caster.bestv.com.cn/900/3/video.m3u8
百视TV5,https://bp-caster.bestv.com.cn/956/3/video.m3u8
百视TV6,https://bp-caster.bestv.com.cn/947/3/video.m3u8
百视TV7,https://bp-caster.bestv.com.cn/941/3/video.m3u8
百视TV8,https://bp-caster.bestv.com.cn/953/3/video.m3u8
百视TV9,https://bp-caster.bestv.com.cn/939/3/video.m3u8
百视TV10,https://bp-caster.bestv.com.cn/938/3/video.m3u8
百视TV11,https://bp-caster.bestv.com.cn/937/3/video.m3u8
百视TV12,https://bp-caster.bestv.com.cn/943/3/video.m3u8
百视TV14,https://bp-caster.bestv.com.cn/934/3/video.m3u8
百视独播1,https://bp-caster.bestv.com.cn/946/3/video.m3u8
百视独播2,https://bp-caster.bestv.com.cn/955/3/video.m3u8
百视独播3,https://bp-caster.bestv.com.cn/940/3/video.m3u8
百视独播4,https://bp-caster.bestv.com.cn/944/3/video.m3u8
百视自制,https://bp-caster.bestv.com.cn/723/3/video.m3u8
独家直播,https://bp-caster.bestv.com.cn/936/3/video.m3u8

SITV频道,#genre#
动漫秀场,http://[2409:8087:1e03:21::2]:6060/cms001/ch00000090990000001196/index.m3u8
游戏风云,http://[2409:8087:1e03:21::2]:6060/cms001/ch00000090990000001192/index.m3u8
法治天地,http://[2409:8087:1e03:21::2]:6060/cms001/ch00000090990000001195/index.m3u8
欢笑剧场,http://[2409:8087:1e03:21::2]:6060/cms001/ch00000090990000001193/index.m3u8
七彩戏剧,http://[2409:8087:1e03:21::2]:6060/cms001/ch00000090990000001308/index.m3u8
生活时尚,http://[2409:8087:1e03:21::2]:6060/cms001/ch00000090990000001199/index.m3u8
乐游,http://[2409:8087:1e03:21::2]:6060/cms001/ch00000090990000001200/index.m3u8
都市剧场,http://[2409:8087:1e03:21::2]:6060/cms001/ch00000090990000001203/index.m3u8
东方财经,http://[2409:8087:1e03:21::2]:6060/cms001/ch00000090990000001318/index.m3u8
动漫秀场,http://iptvrr.sh.chinamobile.com:6060/cms001/ch00000090990000001196/index.m3u8
游戏风云,http://iptvrr.sh.chinamobile.com:6060/cms001/ch00000090990000001192/index.m3u8
法治天地,http://iptvrr.sh.chinamobile.com:6060/cms001/ch00000090990000001195/index.m3u8
欢笑剧场,http://iptvrr.sh.chinamobile.com:6060/cms001/ch00000090990000001193/index.m3u8
七彩戏剧,http://iptvrr.sh.chinamobile.com:6060/cms001/ch00000090990000001308/index.m3u8
生活时尚,http://iptvrr.sh.chinamobile.com:6060/cms001/ch00000090990000001199/index.m3u8
乐游,http://iptvrr.sh.chinamobile.com:6060/cms001/ch00000090990000001200/index.m3u8
都市剧场,http://iptvrr.sh.chinamobile.com:6060/cms001/ch00000090990000001203/index.m3u8
东方财经,http://iptvrr.sh.chinamobile.com:6060/cms001/ch00000090990000001318/index.m3u8
动漫秀场,http://zteres.sn.chinamobile.com:6060/000000001000/2000000002000000009/1.m3u8?channel-id=hnbblive&Contentid=2000000002000000009&livemode=1&stbId=3
动漫秀场,http://zteres.sn.chinamobile.com:6060/000000001000/5000000002000023636/1.m3u8?channel-id=bestzb&Contentid=5000000002000023636&livemode=1&stbId=3
动漫秀场,http://zteres.sn.chinamobile.com:6060/000000001000/5000000011000031113/1.m3u8?channel-id=bestzb&Contentid=5000000011000031113&livemode=1&stbId=3
游戏风云,http://zteres.sn.chinamobile.com:6060/000000001000/2000000002000000011/1.m3u8?channel-id=hnbblive&Contentid=2000000002000000011&livemode=1&stbId=3
游戏风云,http://zteres.sn.chinamobile.com:6060/000000001000/5000000002000027005/1.m3u8?channel-id=bestzb&Contentid=5000000002000027005&livemode=1&stbId=3
游戏风云,http://zteres.sn.chinamobile.com:6060/000000001000/5000000011000031114/1.m3u8?channel-id=bestzb&Contentid=5000000011000031114&livemode=1&stbId=3
法治天地,http://zteres.sn.chinamobile.com:6060/000000001000/2000000002000000014/1.m3u8?channel-id=hnbblive&Contentid=2000000002000000014&livemode=1&stbId=3
法治天地,http://zteres.sn.chinamobile.com:6060/000000001000/9001547084732463424/1.m3u8?channel-id=bestzb&Contentid=9001547084732463424&livemode=1&stbId=3
魅力足球,http://zteres.sn.chinamobile.com:6060/000000001000/2000000002000000068/1.m3u8?channel-id=hnbblive&Contentid=2000000002000000068&livemode=1&stbId=3
魅力足球,http://zteres.sn.chinamobile.com:6060/000000001000/5000000011000031207/1.m3u8?channel-id=bestzb&Contentid=5000000011000031207&livemode=1&stbId=3
欢笑剧场,http://zteres.sn.chinamobile.com:6060/000000001000/2000000002000000016/1.m3u8?channel-id=hnbblive&Contentid=2000000002000000016&livemode=1&stbId=3
欢笑剧场,http://zteres.sn.chinamobile.com:6060/000000001000/5000000002000009455/1.m3u8?channel-id=bestzb&Contentid=5000000002000009455&livemode=1&stbId=3
欢笑剧场,http://zteres.sn.chinamobile.com:6060/000000001000/5000000007000010001/1.m3u8?channel-id=bestzb&Contentid=5000000007000010001&livemode=1&stbId=3
七彩戏剧,http://zteres.sn.chinamobile.com:6060/000000001000/2000000002000000010/1.m3u8?channel-id=hnbblive&Contentid=2000000002000000010&livemode=1&stbId=3
七彩戏剧,http://zteres.sn.chinamobile.com:6060/000000001000/5000000011000031116/1.m3u8?channel-id=bestzb&Contentid=5000000011000031116&livemode=1&stbId=3
生活时尚,http://zteres.sn.chinamobile.com:6060/000000001000/2000000002000000006/1.m3u8?channel-id=hnbblive&Contentid=2000000002000000006&livemode=1&stbId=3
生活时尚,http://zteres.sn.chinamobile.com:6060/000000001000/5000000002000019634/1.m3u8?channel-id=bestzb&Contentid=5000000002000019634&livemode=1&stbId=3
都市剧场,http://zteres.sn.chinamobile.com:6060/000000001000/2000000002000000015/1.m3u8?channel-id=hnbblive&Contentid=2000000002000000015&livemode=1&stbId=3
都市剧场,http://zteres.sn.chinamobile.com:6060/000000001000/5000000002000004412/1.m3u8?channel-id=bestzb&Contentid=5000000002000004412&livemode=1&stbId=3
都市剧场,http://zteres.sn.chinamobile.com:6060/000000001000/5000000011000031111/1.m3u8?channel-id=bestzb&Contentid=5000000011000031111&livemode=1&stbId=3
东方财经,http://zteres.sn.chinamobile.com:6060/000000001000/2000000002000000090/1.m3u8?channel-id=hnbblive&Contentid=2000000002000000090&livemode=1&stbId=3
东方财经,http://zteres.sn.chinamobile.com:6060/000000001000/5000000007000010003/1.m3u8?channel-id=bestzb&Contentid=5000000007000010003&livemode=1&stbId=3

IHOT频道,#genre#
IHOT爱电竞,http://[2409:8087:7000:20:1000::22]:6060/000000001000/6000000006000230630/index.m3u8?channel-id=wasusyt&Contentid=6000000006000230630&livemode=1&stbId=3
IHOT爱谍战,http://[2409:8087:7000:20:1000::22]:6060/000000001000/6000000006000070630/index.m3u8?channel-id=wasusyt&Contentid=6000000006000070630&livemode=1&stbId=3
IHOT爱动漫,http://[2409:8087:7000:20:1000::22]:6060/000000001000/6000000006000280630/index.m3u8?channel-id=wasusyt&Contentid=6000000006000280630&livemode=1&stbId=3
IHOT爱怀旧,http://[2409:8087:7000:20:1000::22]:6060/000000001000/6000000006000260630/index.m3u8?channel-id=wasusyt&Contentid=6000000006000260630&livemode=1&stbId=3
IHOT爱经典,http://[2409:8087:7000:20:1000::22]:6060/000000001000/6000000006000060630/index.m3u8?channel-id=wasusyt&Contentid=6000000006000060630&livemode=1&stbId=3
IHOT爱科幻,http://[2409:8087:7000:20:1000::22]:6060/000000001000/6000000006000020630/index.m3u8?channel-id=wasusyt&Contentid=6000000006000020630&livemode=1&stbId=3
IHOT爱科学,http://[2409:8087:7000:20:1000::22]:6060/000000001000/6000000006000160630/index.m3u8?channel-id=wasusyt&Contentid=6000000006000160630&livemode=1&stbId=3
IHOT爱浪漫,http://[2409:8087:7000:20:1000::22]:6060/000000001000/6000000006000040630/index.m3u8?channel-id=wasusyt&Contentid=6000000006000040630&livemode=1&stbId=3
IHOT爱历史,http://[2409:8087:7000:20:1000::22]:6060/000000001000/6000000006000150630/index.m3u8?channel-id=wasusyt&Contentid=6000000006000150630&livemode=1&stbId=3
IHOT爱旅行,http://[2409:8087:7000:20:1000::22]:6060/000000001000/6000000006000250630/index.m3u8?channel-id=wasusyt&Contentid=6000000006000250630&livemode=1&stbId=3
IHOT爱奇谈,http://[2409:8087:7000:20:1000::22]:6060/000000001000/6000000006000270630/index.m3u8?channel-id=wasusyt&Contentid=6000000006000270630&livemode=1&stbId=3
IHOT爱青春,http://[2409:8087:7000:20:1000::22]:6060/000000001000/6000000006000100630/index.m3u8?channel-id=wasusyt&Contentid=6000000006000100630&livemode=1&stbId=3
IHOT爱赛车,http://[2409:8087:7000:20:1000::22]:6060/000000001000/6000000006000240630/index.m3u8?channel-id=wasusyt&Contentid=6000000006000240630&livemode=1&stbId=3
IHOT爱体育,http://[2409:8087:7000:20:1000::22]:6060/000000001000/6000000006000290630/index.m3u8?channel-id=wasusyt&Contentid=6000000006000290630&livemode=1&stbId=3
IHOT爱玩具,http://[2409:8087:7000:20:1000::22]:6060/000000001000/6000000006000220630/index.m3u8?channel-id=wasusyt&Contentid=6000000006000220630&livemode=1&stbId=3
IHOT爱喜剧,http://[2409:8087:7000:20:1000::22]:6060/000000001000/6000000006000010630/index.m3u8?channel-id=wasusyt&Contentid=6000000006000010630&livemode=1&stbId=3
IHOT爱悬疑,http://[2409:8087:7000:20:1000::22]:6060/000000001000/6000000006000050630/index.m3u8?channel-id=wasusyt&Contentid=6000000006000050630&livemode=1&stbId=3
IHOT爱院线,http://[2409:8087:7000:20:1000::22]:6060/000000001000/6000000006000030630/index.m3u8?channel-id=wasusyt&Contentid=6000000006000030630&livemode=1&stbId=3
IHOT爱电竞,http://[2409:8087:7000:20:1000::22]:6060/000000001000/2000000004000000054/index.m3u8?channel-id=hnbblive&Contentid=2000000004000000054&livemode=1&stbId=3
IHOT爱谍战,http://[2409:8087:7000:20:1000::22]:6060/000000001000/2000000004000000038/index.m3u8?channel-id=hnbblive&Contentid=2000000004000000038&livemode=1&stbId=3
IHOT爱动漫,http://[2409:8087:7000:20:1000::22]:6060/000000001000/2000000004000000059/index.m3u8?channel-id=hnbblive&Contentid=2000000004000000059&livemode=1&stbId=3
IHOT爱怀旧,http://[2409:8087:7000:20:1000::22]:6060/000000001000/2000000004000000057/index.m3u8?channel-id=hnbblive&Contentid=2000000004000000057&livemode=1&stbId=3
IHOT爱经典,http://[2409:8087:7000:20:1000::22]:6060/000000001000/2000000004000000037/index.m3u8?channel-id=hnbblive&Contentid=2000000004000000037&livemode=1&stbId=3
IHOT爱科幻,http://[2409:8087:7000:20:1000::22]:6060/000000001000/2000000004000000033/index.m3u8?channel-id=hnbblive&Contentid=2000000004000000033&livemode=1&stbId=3
IHOT爱科学,http://[2409:8087:7000:20:1000::22]:6060/000000001000/2000000004000000047/index.m3u8?channel-id=hnbblive&Contentid=2000000004000000047&livemode=1&stbId=3
IHOT爱浪漫,http://[2409:8087:7000:20:1000::22]:6060/000000001000/2000000004000000035/index.m3u8?channel-id=hnbblive&Contentid=2000000004000000035&livemode=1&stbId=3
IHOT爱历史,http://[2409:8087:7000:20:1000::22]:6060/000000001000/2000000004000000046/index.m3u8?channel-id=hnbblive&Contentid=2000000004000000046&livemode=1&stbId=3
IHOT爱旅行,http://[2409:8087:7000:20:1000::22]:6060/000000001000/2000000004000000056/index.m3u8?channel-id=hnbblive&Contentid=2000000004000000056&livemode=1&stbId=3
IHOT爱奇谈,http://[2409:8087:7000:20:1000::22]:6060/000000001000/2000000004000000058/index.m3u8?channel-id=hnbblive&Contentid=2000000004000000058&livemode=1&stbId=3
IHOT爱青春,http://[2409:8087:7000:20:1000::22]:6060/000000001000/2000000004000000041/index.m3u8?channel-id=hnbblive&Contentid=2000000004000000041&livemode=1&stbId=3
IHOT爱赛车,http://[2409:8087:7000:20:1000::22]:6060/000000001000/2000000004000000055/index.m3u8?channel-id=hnbblive&Contentid=2000000004000000055&livemode=1&stbId=3
IHOT爱体育,http://[2409:8087:7000:20:1000::22]:6060/000000001000/2000000004000000060/index.m3u8?channel-id=hnbblive&Contentid=2000000004000000060&livemode=1&stbId=3
IHOT爱玩具,http://[2409:8087:7000:20:1000::22]:6060/000000001000/2000000004000000053/index.m3u8?channel-id=hnbblive&Contentid=2000000004000000053&livemode=1&stbId=3
IHOT爱喜剧,http://[2409:8087:7000:20:1000::22]:6060/000000001000/2000000004000000032/index.m3u8?channel-id=hnbblive&Contentid=2000000004000000032&livemode=1&stbId=3
IHOT爱悬疑,http://[2409:8087:7000:20:1000::22]:6060/000000001000/2000000004000000036/index.m3u8?channel-id=hnbblive&Contentid=2000000004000000036&livemode=1&stbId=3
IHOT爱院线,http://[2409:8087:7000:20:1000::22]:6060/000000001000/2000000004000000034/index.m3u8?channel-id=hnbblive&Contentid=2000000004000000034&livemode=1&stbId=3
IHOT爱动漫,http://[2409:8087:7001:20:1000::95]:6610/000000001000/6000000006000280630/index.m3u8?channel-id=wasusyt&Contentid=6000000006000280630&livemode=1&stbId=3
IHOT爱悬疑,http://[2409:8087:7001:20:1000::95]:6610/000000001000/6000000006000050630/index.m3u8?channel-id=wasusyt&Contentid=6000000006000050630&livemode=1&stbId=3
IHOT爱电竞,http://[2409:8087:7001:20:1000::95]:6610/000000001000/6000000006000230630/index.m3u8?channel-id=wasusyt&Contentid=6000000006000230630&livemode=1&stbId=3
IHOT爱谍战,http://[2409:8087:7001:20:1000::95]:6610/000000001000/6000000006000070630/index.m3u8?channel-id=wasusyt&Contentid=6000000006000070630&livemode=1&stbId=3
IHOT爱怀旧,http://[2409:8087:7001:20:1000::95]:6610/000000001000/6000000006000260630/index.m3u8?channel-id=wasusyt&Contentid=6000000006000260630&livemode=1&stbId=3
IHOT爱经典,http://[2409:8087:7001:20:1000::95]:6610/000000001000/6000000006000060630/index.m3u8?channel-id=wasusyt&Contentid=6000000006000060630&livemode=1&stbId=3
IHOT爱科幻,http://[2409:8087:7001:20:1000::95]:6610/000000001000/6000000006000020630/index.m3u8?channel-id=wasusyt&Contentid=6000000006000020630&livemode=1&stbId=3
IHOT爱科学,http://[2409:8087:7001:20:1000::95]:6610/000000001000/6000000006000160630/index.m3u8?channel-id=wasusyt&Contentid=6000000006000160630&livemode=1&stbId=3
IHOT爱浪漫,http://[2409:8087:7001:20:1000::95]:6610/000000001000/6000000006000040630/index.m3u8?channel-id=wasusyt&Contentid=6000000006000040630&livemode=1&stbId=3
IHOT爱历史,http://[2409:8087:7001:20:1000::95]:6610/000000001000/6000000006000150630/index.m3u8?channel-id=wasusyt&Contentid=6000000006000150630&livemode=1&stbId=3
IHOT爱旅行,http://[2409:8087:7001:20:1000::95]:6610/000000001000/6000000006000250630/index.m3u8?channel-id=wasusyt&Contentid=6000000006000250630&livemode=1&stbId=3
IHOT爱奇谈,http://[2409:8087:7001:20:1000::95]:6610/000000001000/6000000006000270630/index.m3u8?channel-id=wasusyt&Contentid=6000000006000270630&livemode=1&stbId=3
IHOT爱青春,http://[2409:8087:7001:20:1000::95]:6610/000000001000/6000000006000100630/index.m3u8?channel-id=wasusyt&Contentid=6000000006000100630&livemode=1&stbId=3
IHOT爱赛车,http://[2409:8087:7001:20:1000::95]:6610/000000001000/6000000006000240630/index.m3u8?channel-id=wasusyt&Contentid=6000000006000240630&livemode=1&stbId=3
IHOT爱体育,http://[2409:8087:7001:20:1000::95]:6610/000000001000/6000000006000290630/index.m3u8?channel-id=wasusyt&Contentid=6000000006000290630&livemode=1&stbId=3
IHOT爱玩具,http://[2409:8087:7001:20:1000::95]:6610/000000001000/6000000006000220630/index.m3u8?channel-id=wasusyt&Contentid=6000000006000220630&livemode=1&stbId=3
IHOT爱喜剧,http://[2409:8087:7001:20:1000::95]:6610/000000001000/6000000006000010630/index.m3u8?channel-id=wasusyt&Contentid=6000000006000010630&livemode=1&stbId=3
IHOT爱院线,http://[2409:8087:7001:20:1000::95]:6610/000000001000/6000000006000030630/index.m3u8?channel-id=wasusyt&Contentid=6000000006000030630&livemode=1&stbId=3

咪咕,#genre#
咪咕直播4K-1,http://[2409:8087:1a01:df::4001]/PLTV/88888888/224/3221225655/index.m3u8
咪咕直播4K-2,http://[2409:8087:1a01:df::4005]/PLTV/88888888/224/3221225651/index.m3u8
咪咕直播-1,http://[2409:8087:1a01:df::4023]/PLTV/88888888/224/3221225611/index.m3u8
咪咕直播-2,http://[2409:8087:1a01:df::4005]/PLTV/88888888/224/3221225613/index.m3u8
咪咕直播-3,http://[2409:8087:1a01:df::4017]/PLTV/88888888/224/3221225619/index.m3u8
咪咕直播-4,http://[2409:8087:1a01:df::4058]/PLTV/88888888/224/3221225620/index.m3u8
咪咕直播-5,http://[2409:8087:1a01:df::4015]/PLTV/88888888/224/3221225639/index.m3u8
咪咕直播-6,http://[2409:8087:1a01:df::4015]/PLTV/88888888/224/3221225641/index.m3u8
咪咕直播-7,http://[2409:8087:1a01:df::4011]/PLTV/88888888/224/3221225643/index.m3u8
咪咕直播-8,http://[2409:8087:1a01:df::4002]/PLTV/88888888/224/3221225645/index.m3u8
咪咕直播-9,http://[2409:8087:1a01:df::4016]/PLTV/88888888/224/3221225647/index.m3u8
咪咕直播-10,http://[2409:8087:1a01:df::4022]/PLTV/88888888/224/3221225648/index.m3u8
咪咕直播-11,http://[2409:8087:1a01:df::402a]/ottrrs.hl.chinamobile.com/PLTV/88888888/224/3221226469/index.m3u8
咪咕直播-12,http://[2409:8087:1a01:df::4046]/ottrrs.hl.chinamobile.com/PLTV/88888888/224/3221226472/index.m3u8
咪咕直播-13,http://[2409:8087:1a01:df::4014]/PLTV/88888888/224/3221225652/index.m3u8
咪咕直播-14,http://[2409:8087:1a01:df::4013]/PLTV/88888888/224/3221225653/index.m3u8
咪咕直播-15,http://[2409:8087:1a01:df::4017]/PLTV/88888888/224/3221225654/index.m3u8
咪咕直播-16,http://[2409:8087:1a01:df::4019]/PLTV/88888888/224/3221225658/index.m3u8
咪咕直播-17,http://[2409:8087:1a01:df::4012]/PLTV/88888888/224/3221225660/index.m3u8
咪咕直播-18,http://[2409:8087:1a01:df::4023]/PLTV/88888888/224/3221225662/index.m3u8
咪咕直播-19,http://[2409:8087:1a01:df::4062]/PLTV/88888888/224/3221225733/index.m3u8
咪咕直播-20,http://[2409:8087:1a01:df::4048]/PLTV/88888888/224/3221225735/index.m3u8
咪咕直播-21,http://[2409:8087:1a01:df::4025]/PLTV/88888888/224/3221225737/index.m3u8
咪咕直播-22,http://[2409:8087:1a01:df::4074]/PLTV/88888888/224/3221225739/index.m3u8
咪咕直播-23,http://[2409:8087:1a01:df::4030]/PLTV/88888888/224/3221225754/index.m3u8
咪咕直播-24,http://[2409:8087:1a01:df::4025]/PLTV/88888888/224/3221225756/index.m3u8
咪咕直播-25,http://[2409:8087:1a01:df::4077]/PLTV/88888888/224/3221225758/index.m3u8
咪咕直播-26,http://[2409:8087:1a01:df::4025]/PLTV/88888888/224/3221225760/index.m3u8
咪咕直播-27,http://[2409:8087:1a01:df::4002]/PLTV/88888888/224/3221225895/index.m3u8
咪咕直播-28,http://[2409:8087:1a01:df::4028]/PLTV/88888888/224/3221225897/index.m3u8
咪咕直播-29,http://[2409:8087:1a01:df::4061]/PLTV/88888888/224/3221225899/index.m3u8
咪咕直播-30,http://[2409:8087:1a01:df::4009]/PLTV/88888888/224/3221225901/index.m3u8
咪咕直播-31,http://[2409:8087:1a01:df::4023]/PLTV/88888888/224/3221225903/index.m3u8
咪咕直播-32,http://[2409:8087:1a01:df::403b]/ottrrs.hl.chinamobile.com/PLTV/88888888/224/3221226147/index.m3u8
咪咕直播-33,http://[2409:8087:1a01:df::4051]/PLTV/88888888/224/3221225905/index.m3u8
咪咕直播-34,http://[2409:8087:1a01:df::4033]/ottrrs.hl.chinamobile.com/PLTV/88888888/224/3221226398/index.m3u8
咪咕直播-35,http://[2409:8087:1a01:df::4055]/PLTV/88888888/224/3221225910/index.m3u8
咪咕直播-36,http://[2409:8087:1a01:df::4076]/PLTV/88888888/224/3221225912/index.m3u8
咪咕直播-37,http://[2409:8087:1a01:df::4027]/PLTV/88888888/224/3221225914/index.m3u8
咪咕直播-38,http://[2409:8087:1a01:df::4076]/PLTV/88888888/224/3221226027/index.m3u8
咪咕直播-39,http://[2409:8087:1a01:df::4068]/PLTV/88888888/224/3221226031/index.m3u8
咪咕直播-40,http://[2409:8087:1a01:df::4062]/PLTV/88888888/224/3221226046/index.m3u8
咪咕直播-41,http://[2409:8087:1a01:df::4041]/PLTV/88888888/224/3221226053/index.m3u8
咪咕直播-42,http://[2409:8087:1a01:df::404d]/ottrrs.hl.chinamobile.com/PLTV/88888888/224/3221226124/index.m3u8

少儿频道,#genre#
卡酷少儿,http://[2409:8087:1e03:21::2]:6060/cms001/ch00000090990000001245/index.m3u8
海南少儿,http://[2409:8087:5e01:34::21]:6610/ZTE_CMS/08984400000000060000000000000323/index.m3u8?fmmv6
卡酷少儿,http://39.134.24.162/dbiptv.sn.chinamobile.com/PLTV/88888890/224/3221225743/index.m3u8
嘉佳卡通,http://[2409:8087:74F1:0021::0008]:80/PLTV/88888888/224/3221225681/1.m3u8
嘉佳卡通,http://[2409:8087:1e03:21::2]:6060/cms001/ch00000090990000001227/index.m3u8
嘉佳卡通,http://dbiptv.sn.chinamobile.com/PLTV/88888890/224/3221226227/index.m3u8
嘉佳卡通,http://[2409:8087:7004:20:1000::22]:6610/yinhe/2/ch00000090990000001310/index.m3u8?virtualDomain=yinhe.live_hls.zte.com
金鹰卡通,http://[2409:8087:4c0a:22:1::11]:6410/170000001115/UmaiCHAN6000057BESTVSMGSMG/index.m3u8?AuthInfo=9kOOdBn7MFF%2F2bWjKgahUTWDyIgRkFJBAHMhA2ayG0T0ZQXwaiVktPr6ILPKXqwOw2VoxnxHvBSRSzCCC3szSwIgrD0rUpRXeaqChwLXCf0
卡酷少儿,https://cntv.lat/tv/live.php?auth=231110&id=bjkakuSD
金鹰卡通,https://cntv.lat/tv/live.php?auth=231110&id=jinyingSD
黑莓动画,http://[2409:8087:2001:20:2800:0:df6e:eb15]:80/wh7f454c46tw1756633734_-1487356125/ott.mobaibox.com/PLTV/3/224/3221225555/index.m3u8?icpid=3&RTS=1674386167&from=40&popid=40&hms_devid=2115&prioritypopid=40&vqe=3
哈哈炫动,http://[2409:8087:1e03:21::2]:6060/cms001/ch00000090990000001232/index.m3u8
哈哈炫动,http://dbiptv.sn.chinamobile.com/PLTV/88888890/224/3221226213/index.m3u8
动漫秀场,http://[2409:8087:74F1:0021::0008]:80/PLTV/88888888/224/3221226197/1.m3u8
